R for Data Science
…
You only need to install a package once, but you need to reload it every time you start a new session.

If we need to be explicit about where a function (or dataset) comes from, we’ll use the special form package::function(). For example, ggplot2::ggplot() tells you explicitly that we’re using the ggplot() function from the ggplot2 package.

3.2 First steps

Let’s use our first graph to answer a question: Do cars with big engines use more fuel than cars with small engines? You probably already have an answer, but try to make your answer precise. What does the relationship between engine size and fuel efficiency look like? Is it positive? Negative? Linear? Nonlinear?

3.2.1 mpg 데이터프레임

You can test your answer with the mpg 데이터프레임 found in ggplot2 (aka ggplot2::mpg). A data frame is a rectangular collection of variables (in the columns) and observations (in the rows). mpg contains observations collected by the US Environmental Protection Agency on 38 models of car.

mpg
#> # A tibble: 234 x 11
#>   manufacturer model displ  year   cyl trans drv     cty   hwy fl    class
#>   <chr>        <chr> <dbl> <int> <int> <chr> <chr> <int> <int> <chr> <chr>
#> 1 audi         a4      1.8  1999     4 auto… f        18    29 p     comp…
#> 2 audi         a4      1.8  1999     4 manu… f        21    29 p     comp…
#> 3 audi         a4      2    2008     4 manu… f        20    31 p     comp…
#> 4 audi         a4      2    2008     4 auto… f        21    30 p     comp…
#> 5 audi         a4      2.8  1999     6 auto… f        16    26 p     comp…
#> 6 audi         a4      2.8  1999     6 manu… f        18    26 p     comp…
#> # ... with 228 more rows
…
