5 데이터 변환 | R 을 활용한 데이터과학
…
tidyverse를 로드할 때 출력되는 충돌 메시지를 조심히 살펴보라. dplyr이 베이스 R 함수 몇 개를 덮어쓴다고 알려준다. dplyr를 로딩한 후 이 함수들의 베이스
버전을 사용하고 싶다면 stats::filter(), stats::lag() 와 같이 전체 이름을
사용해야 한다.

5.1.2 nycflights13

dplyr의 기본 데이터 작업(manipulation) 동사를 탐색하기 위해서 nycflights13::flights 를 사용할 것이다. 이 데이터프레임에는 뉴욕시에서 2013년에 출발한
336,776 편의 모든 항공편이 포함되어 있다. 데이터의 출처는 Bureau of Transportation Statistics이며 ?flights 에 문서화되어 있다.

flights
#> # A tibble: 336,776 × 19
#>    year month   day dep_time sched_dep_time dep_delay arr_time sched_arr_time
#>   <int> <int> <int>    <int>          <int>     <dbl>    <int>          <int>
#> 1  2013     1     1      517            515         2      830            819
#> 2  2013     1     1      533            529         4      850            830
#> 3  2013     1     1      542            540         2      923            850
#> 4  2013     1     1      544            545        -1     1004           1022
#> 5  2013     1     1      554            600        -6      812            837
#> 6  2013     1     1      554            558        -4      740            728
#> # … with 336,770 more rows, and 11 more variables: arr_delay <dbl>,
#> #   carrier <chr>, flight <int>, tailnum <chr>, origin <chr>, dest <chr>,
#> #   air_time <dbl>, distance <dbl>, hour <dbl>, minute <dbl>, time_hour <dttm>
…
5.2 행

아래의 함수들은 행 (관측값들) 에 영향을 주지만 열 (변수들) 에는 변화를 주지 않는다.
filter() 는 순서를 변화시키지 않고 어떤 행이 포함될지를 결정하고, arrange() 는 멤버십을 변화시키지 않으면서 순서만 바꾼다.

5.2.1 filter()

filter() 를 이용하면 값을 기준으로 데이터를 서브셋 할 수 있다1.
첫 번째 인수는 데이터프레임 이름이다. 두 번째 이후의 인수들은 데이터프레임을 필터링하는
표현식들이다. 예를 들어 1월 1일 항공편 모두를 다음과 같이 선택할 수 있다.

filter(flights, month == 1, day == 1)
#> # A tibble: 842 × 19
#>    year month   day dep_time sched_dep_time dep_delay arr_time sched_arr_time
#>   <int> <int> <int>    <int>          <int>     <dbl>    <int>          <int>
#> 1  2013     1     1      517            515         2      830            819
#> 2  2013     1     1      533            529         4      850            830
#> 3  2013     1     1      542            540         2      923            850
#> 4  2013     1     1      544            545        -1     1004           1022
#> 5  2013     1     1      554            600        -6      812            837
#> 6  2013     1     1      554            558        -4      740            728
#> # … with 836 more rows, and 11 more variables: arr_delay <dbl>, carrier <chr>,
#> #   flight <int>, tailnum <chr>, origin <chr>, dest <chr>, air_time <dbl>,
#> #   distance <dbl>, hour <dbl>, minute <dbl>, time_hour <dttm>
…
filter(flights, month = 1)
#> Error: Problem with `filter()` input `..1`.
#> x Input `..1` is named.
#> ℹ This usually means that you've used `=` instead of `==`.
#> ℹ Did you mean `month == 1`?

5.2.2 arrange()

arrange() 는 filter() 와 비슷하게 작동하는데, 차이점은 행을 선택하는 대신 행의 순서를 바꾼다.
데이터프레임과 순서의 기준으로 삼을 열 이름 (혹은 더 복잡한 표현식) 을 입력으로 한다.
열 이름이 하나 이상 입력된다면 추가된 열은 이전 열 값 동전값(tie) 상황을 해결하는 데에 사용된다.

arrange(flights, year, month, day)
#> # A tibble: 336,776 × 19
#>    year month   day dep_time sched_dep_time dep_delay arr_time sched_arr_time
#>   <int> <int> <int>    <int>          <int>     <dbl>    <int>          <int>
#> 1  2013     1     1      517            515         2      830            819
#> 2  2013     1     1      533            529         4      850            830
#> 3  2013     1     1      542            540         2      923            850
#> 4  2013     1     1      544            545        -1     1004           1022
#> 5  2013     1     1      554            600        -6      812            837
#> 6  2013     1     1      554            558        -4      740            728
#> # … with 336,770 more rows, and 11 more variables: arr_delay <dbl>,
#> #   carrier <chr>, flight <int>, tailnum <chr>, origin <chr>, dest <chr>,
#> #   air_time <dbl>, distance <dbl>, hour <dbl>, minute <dbl>, time_hour <dttm>

desc() 을 사용하면 내림차순 (descending order) 으로 정렬한다:

arrange(flights, desc(dep_delay))
#> # A tibble: 336,776 × 19
#>    year month   day dep_time sched_dep_time dep_delay arr_time sched_arr_time
#>   <int> <int> <int>    <int>          <int>     <dbl>    <int>          <int>
#> 1  2013     1     9      641            900      1301     1242           1530
#> 2  2013     6    15     1432           1935      1137     1607           2120
#> 3  2013     1    10     1121           1635      1126     1239           1810
#> 4  2013     9    20     1139           1845      1014     1457           2210
#> 5  2013     7    22      845           1600      1005     1044           1815
#> 6  2013     4    10     1100           1900       960     1342           2211
#> # … with 336,770 more rows, and 11 more variables: arr_delay <dbl>,
#> #   carrier <chr>, flight <int>, tailnum <chr>, origin <chr>, dest <chr>,
#> #   air_time <dbl>, distance <dbl>, hour <dbl>, minute <dbl>, time_hour <dttm>
…
아래의 함수들은 열 (변수들) 에 영향을 주지만, 행 (관측값) 을 변환시키지는 않는다.
mutate() 는 존재하는 변수들의 함수인 새로운 변수들을 생성시킨다.; select(), rename(), relocate() 은 어떤 변수가 있어야하는지를 정하고, 변수이름과 위치를 변화시킨다.

5.3.1 mutate()

mutate() 이 하는 일은 존재하는 열의 함수인 새로운 열을 추가하는 것이다.
이후 나올 장에서 다양한 종류의 변수들을 다루는데 사용할 수 있는 함수 모두를 배우게 될 것이다.
여기에서는 기초 수학 연산자들만 볼 것인데, 연착 비행기가 비행 중에 얼마나 따라 잡았는지를 나타내는 gain 과, 시간당 마일단위의 speed 를 계산해보자:

mutate(flights,
     gain = dep_delay - arr_delay,
     speed = distance / air_time * 60
)
#> # A tibble: 336,776 × 21
#>    year month   day dep_time sched_dep_time dep_delay arr_time sched_arr_time
#>   <int> <int> <int>    <int>          <int>     <dbl>    <int>          <int>
#> 1  2013     1     1      517            515         2      830            819
#> 2  2013     1     1      533            529         4      850            830
#> 3  2013     1     1      542            540         2      923            850
#> 4  2013     1     1      544            545        -1     1004           1022
#> 5  2013     1     1      554            600        -6      812            837
#> 6  2013     1     1      554            558        -4      740            728
#> # … with 336,770 more rows, and 13 more variables: arr_delay <dbl>,
#> #   carrier <chr>, flight <int>, tailnum <chr>, origin <chr>, dest <chr>,
#> #   air_time <dbl>, distance <dbl>, hour <dbl>, minute <dbl>, time_hour <dttm>,
#> #   gain <dbl>, speed <dbl>

mutate() 의 기본값 동작은 새로운 열을 항상 데이터셋 오른쪽에 추가하기 때문에 일어나는 일을 보기가 어렵다.
.before 인수를 사용하여 왼쪽에 변수들을 추가할 수 있다2:

mutate(flights,
       gain = dep_delay - arr_delay,
       speed = distance / air_time * 60,
       .before = 1
)
#> # A tibble: 336,776 × 21
#>    gain speed  year month   day dep_time sched_dep_time dep_delay arr_time
#>   <dbl> <dbl> <int> <int> <int>    <int>          <int>     <dbl>    <int>
#> 1    -9  370.  2013     1     1      517            515         2      830
#> 2   -16  374.  2013     1     1      533            529         4      850
#> 3   -31  408.  2013     1     1      542            540         2      923
#> 4    17  517.  2013     1     1      544            545        -1     1004
#> 5    19  394.  2013     1     1      554            600        -6      812
#> 6   -16  288.  2013     1     1      554            558        -4      740
#> # … with 336,770 more rows, and 12 more variables: sched_arr_time <int>,
#> #   arr_delay <dbl>, carrier <chr>, flight <int>, tailnum <chr>, origin <chr>,
#> #   dest <chr>, air_time <dbl>, distance <dbl>, hour <dbl>, minute <dbl>,
#> #   time_hour <dttm>

맨 앞의 . 은 .before 가 생성되는 변수가 아니라 함수의 인수라는 것을 나타낸다.
.after 를 사용하여 어떤 변수 뒤에 추가하고, 또 위치 대신 변수이름을 사용할 수도 있다.

mutate(flights,
       gain = dep_delay - arr_delay,
       speed = distance / air_time * 60,
       .after = day
)
#> # A tibble: 336,776 × 21
#>    year month   day  gain speed dep_time sched_dep_time dep_delay arr_time
#>   <int> <int> <int> <dbl> <dbl>    <int>          <int>     <dbl>    <int>
#> 1  2013     1     1    -9  370.      517            515         2      830
#> 2  2013     1     1   -16  374.      533            529         4      850
#> 3  2013     1     1   -31  408.      542            540         2      923
#> 4  2013     1     1    17  517.      544            545        -1     1004
#> 5  2013     1     1    19  394.      554            600        -6      812
#> 6  2013     1     1   -16  288.      554            558        -4      740
#> # … with 336,770 more rows, and 12 more variables: sched_arr_time <int>,
#> #   arr_delay <dbl>, carrier <chr>, flight <int>, tailnum <chr>, origin <chr>,
#> #   dest <chr>, air_time <dbl>, distance <dbl>, hour <dbl>, minute <dbl>,
#> #   time_hour <dttm>

다른 방법으로, .keep 인수를 사용하여 어떤 변수들을 유지할지를 조정할 수 있다:

mutate(flights,
       gain = dep_delay - arr_delay,
       hours = air_time / 60,
       gain_per_hour = gain / hours,
       .keep = "none"
)
#> # A tibble: 336,776 × 3
#>    gain hours gain_per_hour
#>   <dbl> <dbl>         <dbl>
#> 1    -9  3.78         -2.38
#> 2   -16  3.78         -4.23
#> 3   -31  2.67        -11.6 
#> 4    17  3.05          5.57
#> 5    19  1.93          9.83
#> 6   -16  2.5          -6.4 
#> # … with 336,770 more rows

5.3.2 select()

변수가 수백, 수천 개인 데이터셋을 심심치 않게 만날 것이다. 이 경우 첫 과제는 실제로 관심 있는 변수들로 좁히는 것이다.
select() 와 변수 이름에 기반한 연산들을 이용하면 유용한 서브셋으로 신속하게 줌-인해 볼 수 있다.
변수가 19개밖에 없는 항공편 데이터에서는 select() 가 엄청나게 유용하지는
않지만 일반적인 개념을 볼 수는 있다.

# Select columns by name
select(flights, year, month, day)
#> # A tibble: 336,776 × 3
#>    year month   day
#>   <int> <int> <int>
#> 1  2013     1     1
#> 2  2013     1     1
#> 3  2013     1     1
#> 4  2013     1     1
#> 5  2013     1     1
#> 6  2013     1     1
#> # … with 336,770 more rows
# Select all columns between year and day (inclusive)
select(flights, year:day)
#> # A tibble: 336,776 × 3
#>    year month   day
#>   <int> <int> <int>
#> 1  2013     1     1
#> 2  2013     1     1
#> 3  2013     1     1
#> 4  2013     1     1
#> 5  2013     1     1
#> 6  2013     1     1
#> # … with 336,770 more rows
# Select all columns except those from year to day (inclusive)
select(flights, -(year:day))
#> # A tibble: 336,776 × 16
#>   dep_time sched_dep_time dep_delay arr_time sched_arr_time arr_delay carrier
#>      <int>          <int>     <dbl>    <int>          <int>     <dbl> <chr>  
#> 1      517            515         2      830            819        11 UA     
#> 2      533            529         4      850            830        20 UA     
#> 3      542            540         2      923            850        33 AA     
#> 4      544            545        -1     1004           1022       -18 B6     
#> 5      554            600        -6      812            837       -25 DL     
#> 6      554            558        -4      740            728        12 UA     
#> # … with 336,770 more rows, and 9 more variables: flight <int>, tailnum <chr>,
#> #   origin <chr>, dest <chr>, air_time <dbl>, distance <dbl>, hour <dbl>,
#> #   minute <dbl>, time_hour <dttm>
…
ends_with("xyz"): “xyz” 로 끝나는 이름에 매칭.

contains("ijk"): “ijk” 를 포함하는 이름에 매칭.

num_range("x", 1:3): x1, x2 x3 에 매칭.

자세한 내용은 ?select 를 보자.
정규표현식 (?? 장의 주제) 을 배우면, matches() 를 사용하여 정규표현식에 매칭되는 변수들을 선택할 수 있게 될 것이다.

변수명을 바꾸는 작업을, = 를 사용하여 변수를 선택하는 방법으로 select() 를 이용하여 할 수 있다.
새 이름은 = 의 왼편에, 이전 이름은 오른편에 둔다.

select(flights, tail_num = tailnum)
#> # A tibble: 336,776 × 1
#>   tail_num
#>   <chr>   
#> 1 N14228  
#> 2 N24211  
#> 3 N619AA  
#> 4 N804JB  
#> 5 N668DN  
#> 6 N39463  
#> # … with 336,770 more rows

5.3.3 rename()

모든 변수들을 유지하면서, 변수 몇 개의 이름만 바꾸고 싶다면, select() 대신 rename() 을 사용하면 된다:

rename(flights, tail_num = tailnum)
#> # A tibble: 336,776 × 19
#>    year month   day dep_time sched_dep_time dep_delay arr_time sched_arr_time
#>   <int> <int> <int>    <int>          <int>     <dbl>    <int>          <int>
#> 1  2013     1     1      517            515         2      830            819
#> 2  2013     1     1      533            529         4      850            830
#> 3  2013     1     1      542            540         2      923            850
#> 4  2013     1     1      544            545        -1     1004           1022
#> 5  2013     1     1      554            600        -6      812            837
#> 6  2013     1     1      554            558        -4      740            728
#> # … with 336,770 more rows, and 11 more variables: arr_delay <dbl>,
#> #   carrier <chr>, flight <int>, tail_num <chr>, origin <chr>, dest <chr>,
#> #   air_time <dbl>, distance <dbl>, hour <dbl>, minute <dbl>, time_hour <dttm>

select() 와 완벽히 같은 방법으로 작동하지만 명시적으로 선택하지 않은 변수 모두를 유지한다.

5.3.4 relocate()

relocate 으로 변수를 여기저기 이동시킬 수 있다.
기본값으로 맨 앞으로 변수들을 이동시킨다:

relocate(flights, time_hour, air_time)
#> # A tibble: 336,776 × 19
#>   time_hour           air_time  year month   day dep_time sched_dep_time
#>   <dttm>                 <dbl> <int> <int> <int>    <int>          <int>
#> 1 2013-01-01 05:00:00      227  2013     1     1      517            515
#> 2 2013-01-01 05:00:00      227  2013     1     1      533            529
#> 3 2013-01-01 05:00:00      160  2013     1     1      542            540
#> 4 2013-01-01 05:00:00      183  2013     1     1      544            545
#> 5 2013-01-01 06:00:00      116  2013     1     1      554            600
#> 6 2013-01-01 05:00:00      150  2013     1     1      554            558
#> # … with 336,770 more rows, and 12 more variables: dep_delay <dbl>,
#> #   arr_time <int>, sched_arr_time <int>, arr_delay <dbl>, carrier <chr>,
#> #   flight <int>, tailnum <chr>, origin <chr>, dest <chr>, distance <dbl>,
#> #   hour <dbl>, minute <dbl>

.before 인수와 .after 인수를 사용하여 변수를 위치시킬 곳을 정할 수 있다:

relocate(flights, year:dep_time, .after = time_hour)
#> # A tibble: 336,776 × 19
#>   sched_dep_time dep_delay arr_time sched_arr_time arr_delay carrier flight
#>            <int>     <dbl>    <int>          <int>     <dbl> <chr>    <int>
#> 1            515         2      830            819        11 UA        1545
#> 2            529         4      850            830        20 UA        1714
#> 3            540         2      923            850        33 AA        1141
#> 4            545        -1     1004           1022       -18 B6         725
#> 5            600        -6      812            837       -25 DL         461
#> 6            558        -4      740            728        12 UA        1696
#> # … with 336,770 more rows, and 12 more variables: tailnum <chr>, origin <chr>,
#> #   dest <chr>, air_time <dbl>, distance <dbl>, hour <dbl>, minute <dbl>,
#> #   time_hour <dttm>, year <int>, month <int>, day <int>, dep_time <int>
relocate(flights, starts_with("arr"), .before = dep_time)
#> # A tibble: 336,776 × 19
#>    year month   day arr_time arr_delay dep_time sched_dep_time dep_delay
#>   <int> <int> <int>    <int>     <dbl>    <int>          <int>     <dbl>
#> 1  2013     1     1      830        11      517            515         2
#> 2  2013     1     1      850        20      533            529         4
#> 3  2013     1     1      923        33      542            540         2
#> 4  2013     1     1     1004       -18      544            545        -1
#> 5  2013     1     1      812       -25      554            600        -6
#> 6  2013     1     1      740        12      554            558        -4
#> # … with 336,770 more rows, and 11 more variables: sched_arr_time <int>,
#> #   carrier <chr>, flight <int>, tailnum <chr>, origin <chr>, dest <chr>,
#> #   air_time <dbl>, distance <dbl>, hour <dbl>, minute <dbl>, time_hour <dttm>
…
select(flights, contains("TIME"))

5.4 그룹

dplyr 의 진정한 유용성은 그룹화를 추가할 때 나온다.
핵심 함수는 group_by() 와 summarise() 인데, group_by() 는 다른 dplyr 동사들을 흥미로운 방법으로 영향을 준다.

5.4.1 group_by()

group_by() 를 사용하여 분석에 의미있는 그룹으로 데이터셋을 나눌 수 있다:

by_month <- group_by(flights, month)
by_month
#> # A tibble: 336,776 × 19
#> # Groups:   month [12]
#>    year month   day dep_time sched_dep_time dep_delay arr_time sched_arr_time
#>   <int> <int> <int>    <int>          <int>     <dbl>    <int>          <int>
#> 1  2013     1     1      517            515         2      830            819
#> 2  2013     1     1      533            529         4      850            830
#> 3  2013     1     1      542            540         2      923            850
#> 4  2013     1     1      544            545        -1     1004           1022
#> 5  2013     1     1      554            600        -6      812            837
#> 6  2013     1     1      554            558        -4      740            728
#> # … with 336,770 more rows, and 11 more variables: arr_delay <dbl>,
#> #   carrier <chr>, flight <int>, tailnum <chr>, origin <chr>, dest <chr>,
#> #   air_time <dbl>, distance <dbl>, hour <dbl>, minute <dbl>, time_hour <dttm>

group_by() 는 데이터를 변화시키지는 않지만 자세하기 보면, 데이터가 월로 그룹화 (“grouped by” month) 되었음을 알 수 있다.
데이터를 그룹화하는 이유는 이후 동사들의 연산이 변화되기 때문이다.

5.4.2 summarise()

그룹화된 데이터에 적용할 연산 중 가장 중요한 연산은 요약일 것이다.
각 그룹을 하나의 행으로 축약한다3.
여기에서 월별 평균 출발지연시간을 계산한다:

summarise(by_month, delay = mean(dep_delay, na.rm = TRUE))
#> # A tibble: 12 × 2
#>   month delay
#>   <int> <dbl>
#> 1     1  10.0
#> 2     2  10.8
#> 3     3  13.2
#> 4     4  13.9
#> 5     5  13.0
#> 6     6  20.8
#> # … with 6 more rows

summarise() 한 번의 호출로 요약값 여러개를 생성할 수 있다.
각 데이터 타잎을 다루는 이후 장들에서 유용한 요약값들에 대해 배울 것이다. 유용한 요약값 중 하나는 n() 인데 이는 각 그룹의 행 개수를 반환한다:

summarise(by_month, delay = mean(dep_delay, na.rm = TRUE), n = n())
#> # A tibble: 12 × 3
#>   month delay     n
#>   <int> <dbl> <int>
#> 1     1  10.0 27004
#> 2     2  10.8 24951
#> 3     3  13.2 28834
#> 4     4  13.9 28330
#> 5     5  13.0 28796
#> 6     6  20.8 28243
#> # … with 6 more rows

(사실, 앞 장에서 여러 번 사용한 count() 는 group_by() + summarise(n = n()) 의 단축어이다.)

13 장에서 결측값들을 논의할 것이다.
여기에서는 na.rm = TRUE 으로 요약함수에서 빼거나 !is.na() 를 사용하여 필터함수로 제거할 수 있다:

not_cancelled <- filter(flights, !is.na(dep_delay))
by_month <- group_by(not_cancelled, month)
summarise(by_month, delay = mean(dep_delay))
#> # A tibble: 12 × 2
#>   month delay
#>   <int> <dbl>
#> 1     1  10.0
#> 2     2  10.8
#> 3     3  13.2
#> 4     4  13.9
#> 5     5  13.0
#> 6     6  20.8
#> # … with 6 more rows

5.4.3 다중 연산 결합하기

코드를 작성하기 조금씩 힘들어 지고 있는데, 별로 중요하지 않은 중간 단계의 데이터 프레임에 이름을 지어줘야 하기 때문이다.
이름을 짓는 것은 쉽지 않아서 분석에 속도가 나지 않는다.
이 문제를 파이프, %>% 로 해결하는 방법이 있다:

flights %>%
  filter(!is.na(dep_delay)) %>%
  group_by(month) %>%
  summarise(delay = mean(dep_delay), n = n())
#> # A tibble: 12 × 3
#>   month delay     n
#>   <int> <dbl> <int>
#> 1     1  10.0 26483
#> 2     2  10.8 23690
#> 3     3  13.2 27973
#> 4     4  13.9 27662
#> 5     5  13.0 28233
#> 6     6  20.8 27234
#> # … with 6 more rows
코드의 %>% 를 볼 때마다 이를 마음속으로 “그런다음(then)” 로 “읽는” 것이 좋다.
이렇게 하면 다음과 같이 연속된 명령문으로 읽을 수 있다: flights 데이터셋을 가져오라, 그런다음, dep_delay 에 결측값이 있는 행을 필터하라, 그런다음, month 로 그룹화하라, 그런다음, 평균 dep_delay 와 관측값 개수로 요약하라.

내부적으로는, x %>% f(y) 은 f(x, y) 으로 변환되고 x %>% f(y) %>% g(z) 은 g(f(x, y), z) 로 변환되는 식이다.
파이프를 사용하여 다중 작업을 왼쪽에서 오른쪽으로, 위에서 아래
로 읽을 수 있게 다시 쓸 수 있다.
파이프를 사용하면 코드 가독성이 훨씬 좋아지므로 지금부터는 파이프를 자주 사용할 것이다. 파이프의 세부사항에 대해서는 ?? 장에서 다시 살펴보자.

5.4.4 다중변수로 그룹화하기

데이터프레임을 다중변수로 그룹화할 수 있다:

daily <- flights %>% group_by(year, month, day)
daily
#> # A tibble: 336,776 × 19
#> # Groups:   year, month, day [365]
#>    year month   day dep_time sched_dep_time dep_delay arr_time sched_arr_time
#>   <int> <int> <int>    <int>          <int>     <dbl>    <int>          <int>
#> 1  2013     1     1      517            515         2      830            819
#> 2  2013     1     1      533            529         4      850            830
#> 3  2013     1     1      542            540         2      923            850
#> 4  2013     1     1      544            545        -1     1004           1022
#> 5  2013     1     1      554            600        -6      812            837
#> 6  2013     1     1      554            558        -4      740            728
#> # … with 336,770 more rows, and 11 more variables: arr_delay <dbl>,
#> #   carrier <chr>, flight <int>, tailnum <chr>, origin <chr>, dest <chr>,
#> #   air_time <dbl>, distance <dbl>, hour <dbl>, minute <dbl>, time_hour <dttm>
…
