…
다음의 질문에 답하기 위해 그래프를 이용해 보자. 엔진이 큰 차가 작은 차보다
연료를 더 많이 소비하는가? 이미 답은 알고 있겠지만, 답을 정교하게 만들어보
자. 엔진 크기와 연비의 관계는 어떠한가? 양의 관계? 음의 관계? 선형? 비선형?

### `mpg` 데이터프레임

ggplot2 에 있는 `mpg` 데이터프레임(다른 표현으로 `ggplot2::mpg`)으로 여러분의 답을 
확인할 수 있다. 데이터프레임은 변수들(열)과 관측값들(행)의 직사각형 형태 
모음이다. `mpg` 에는 미 환경보호당국이 수집한 38개의 차 모델들에 대한 관측
값들이 포함되어 있다.


```r
mpg
#> # A tibble: 234 x 11
#>   manufacturer model displ  year   cyl trans      drv     cty   hwy fl    class 
#>   <chr>        <chr> <dbl> <int> <int> <chr>      <chr> <int> <int> <chr> <chr> 
#> 1 audi         a4      1.8  1999     4 auto(l5)   f        18    29 p     compa~
#> 2 audi         a4      1.8  1999     4 manual(m5) f        21    29 p     compa~
#> 3 audi         a4      2    2008     4 manual(m6) f        20    31 p     compa~
#> 4 audi         a4      2    2008     4 auto(av)   f        21    30 p     compa~
#> 5 audi         a4      2.8  1999     6 auto(l5)   f        16    26 p     compa~
#> 6 audi         a4      2.8  1999     6 manual(m5) f        18    26 p     compa~
#> # ... with 228 more rows
```
…
