13 Factors | R for Data Science
…
13.4.1 Exercises

There are some suspiciously high numbers in tvhours. Is the mean a good summary?

For each factor in gss_cat identify whether the order of the levels is arbitrary or principled.

Why did moving “Not applicable” to the front of the levels move it to the bottom of the plot?

13.5 Modifying factor levels

More powerful than changing the orders of the levels is changing their values. This allows you to clarify labels for publication, and collapse levels for high-level displays. The most general and powerful tool is fct_recode(). It allows you to recode, or change, the value of each level. For example, take the gss_cat$partyid:

gss_cat %>% count(partyid)
#> # A tibble: 10 x 2
#>   partyid                n
#>   <fct>              <int>
#> 1 No answer            154
#> 2 Don't know             1
#> 3 Other party          393
#> 4 Strong republican   2314
#> 5 Not str republican  3032
#> 6 Ind,near rep        1791
#> # ... with 4 more rows

The levels are terse and inconsistent. Let’s tweak them to be longer and use a parallel construction.

gss_cat %>%
  mutate(partyid = fct_recode(partyid,
    "Republican, strong"    = "Strong republican",
    "Republican, weak"      = "Not str republican",
    "Independent, near rep" = "Ind,near rep",
    "Independent, near dem" = "Ind,near dem",
    "Democrat, weak"        = "Not str democrat",
    "Democrat, strong"      = "Strong democrat"
  )) %>%
  count(partyid)
#> # A tibble: 10 x 2
#>   partyid                   n
#>   <fct>                 <int>
#> 1 No answer               154
#> 2 Don't know                1
#> 3 Other party             393
#> 4 Republican, strong     2314
#> 5 Republican, weak       3032
#> 6 Independent, near rep  1791
#> # ... with 4 more rows
…
gss_cat %>%
  mutate(partyid = fct_recode(partyid,
    "Republican, strong"    = "Strong republican",
    "Republican, weak"      = "Not str republican",
    "Independent, near rep" = "Ind,near rep",
    "Independent, near dem" = "Ind,near dem",
    "Democrat, weak"        = "Not str democrat",
    "Democrat, strong"      = "Strong democrat",
    "Other"                 = "No answer",
    "Other"                 = "Don't know",
    "Other"                 = "Other party"
  )) %>%
  count(partyid)
#> # A tibble: 8 x 2
#>   partyid                   n
#>   <fct>                 <int>
#> 1 Other                   548
#> 2 Republican, strong     2314
#> 3 Republican, weak       3032
#> 4 Independent, near rep  1791
#> 5 Independent            4119
#> 6 Independent, near dem  2499
#> # ... with 2 more rows
…
