19 스프레드시트 | R 을 활용한 데이터과학
…
데이터에는 학생 여섯이 있고 각 학생마다 변수 다섯개가 있다.
하지만 이 데이터셋에 관해 이야기 하고 싶은 것 몇개가 있다.

The column names are all over the place.
You can provide column names that follow a consistent format; we recommend snake_case using the col_names argument.

read_excel(
  "data/students.xlsx",
  col_names = c("student_id", "full_name", "favourite_food", "meal_plan", "age")
)
#> # A tibble: 7 × 5
#>   student_id full_name        favourite_food     meal_plan           age  
#>   <chr>      <chr>            <chr>              <chr>               <chr>
#> 1 Student ID Full Name        favourite.food     mealPlan            AGE  
#> 2 1          Sunil Huffmann   Strawberry yoghurt Lunch only          4    
#> 3 2          Barclay Lynn     French fries       Lunch only          5    
#> 4 3          Jayendra Lyne    N/A                Breakfast and lunch 7    
#> 5 4          Leon Rossini     Anchovies          Lunch only          <NA> 
#> 6 5          Chidiegwu Dunkel Pizza              Breakfast and lunch five 
#> # … with 1 more row
…
Figure 19.2: Spreadsheet called penguins.xlsx in Excel.

You can read a single sheet from a spreadsheet with the sheet argument in read_excel().

read_excel("data/penguins.xlsx", sheet = "Torgersen Island")
#> # A tibble: 52 × 8
#>   species island bill_length_mm bill_depth_mm flipper_length_… body_mass_g sex  
#>   <chr>   <chr>  <chr>          <chr>         <chr>            <chr>       <chr>
#> 1 Adelie  Torge… 39.1           18.7          181              3750        male 
#> 2 Adelie  Torge… 39.5           17.399999999… 186              3800        fema…
#> 3 Adelie  Torge… 40.2999999999… 18            195              3250        fema…
#> 4 Adelie  Torge… NA             NA            NA               NA          NA   
#> 5 Adelie  Torge… 36.7000000000… 19.3          193              3450        fema…
#> 6 Adelie  Torge… 39.2999999999… 20.6          190              3650        male 
#> # … with 46 more rows, and 1 more variable: year <dbl>

Some variables that appear to contain numerical data are read in as characters due to the character string "NA" not being recognized as a true NA.

penguins_torgersen <- read_excel("data/penguins.xlsx", sheet = "Torgersen Island", na = "NA")

penguins_torgersen
#> # A tibble: 52 × 8
#>   species island bill_length_mm bill_depth_mm flipper_length_… body_mass_g sex  
#>   <chr>   <chr>           <dbl>         <dbl>            <dbl>       <dbl> <chr>
#> 1 Adelie  Torge…           39.1          18.7              181        3750 male 
#> 2 Adelie  Torge…           39.5          17.4              186        3800 fema…
#> 3 Adelie  Torge…           40.3          18                195        3250 fema…
#> 4 Adelie  Torge…           NA            NA                 NA          NA <NA> 
#> 5 Adelie  Torge…           36.7          19.3              193        3450 fema…
#> 6 Adelie  Torge…           39.3          20.6              190        3650 male 
#> # … with 46 more rows, and 1 more variable: year <dbl>
…
In this case the full penguins dataset is spread across three sheets in the spreadsheet.
Each sheet has the same number of columns but different numbers of rows.

dim(penguins_torgersen)
#> [1] 52  8
dim(penguins_biscoe)
#> [1] 168   8
dim(penguins_dream)
#> [1] 124   8

We can put them together with bind_rows().

penguins <- bind_rows(penguins_torgersen, penguins_biscoe, penguins_dream)
penguins
#> # A tibble: 344 × 8
#>   species island bill_length_mm bill_depth_mm flipper_length_… body_mass_g sex  
#>   <chr>   <chr>           <dbl>         <dbl>            <dbl>       <dbl> <chr>
#> 1 Adelie  Torge…           39.1          18.7              181        3750 male 
#> 2 Adelie  Torge…           39.5          17.4              186        3800 fema…
#> 3 Adelie  Torge…           40.3          18                195        3250 fema…
#> 4 Adelie  Torge…           NA            NA                 NA          NA <NA> 
#> 5 Adelie  Torge…           36.7          19.3              193        3450 fema…
#> 6 Adelie  Torge…           39.3          20.6              190        3650 male 
#> # … with 338 more rows, and 1 more variable: year <dbl>
…
This spreadsheet is one of the example spreadsheets provided in the readxl package.
You can use the readxl_example() function to locate the spreadsheet on your system in the directory where the package is installed.
This function returns the path to the spreadsheet, which you can use in read_excel() as usual.

deaths_path <- readxl_example("deaths.xlsx")
deaths <- read_excel(deaths_path)
#> New names:
#> * `` -> ...2
#> * `` -> ...3
#> * `` -> ...4
#> * `` -> ...5
#> * `` -> ...6
deaths
#> # A tibble: 18 × 6
#>   `Lots of people`             ...2       ...3  ...4     ...5          ...6     
#>   <chr>                        <chr>      <chr> <chr>    <chr>         <chr>    
#> 1 simply cannot resist writing <NA>       <NA>  <NA>     <NA>          some not…
#> 2 at                           the        top   <NA>     of            their sp…
#> 3 or                           merging    <NA>  <NA>     <NA>          cells    
#> 4 Name                         Profession Age   Has kids Date of birth Date of …
#> 5 David Bowie                  musician   69    TRUE     17175         42379    
#> 6 Carrie Fisher                actor      60    TRUE     20749         42731    
#> # … with 12 more rows

맨 위 세 행과 맨 아래 네 행은 데이터프레임의 부분이 아니다.

맨 위 행들은 skip 으로 건너뛸 수 있다.
Note that we set skip = 4 since the fourth row contains column names, not the data.

read_excel(deaths_path, skip = 4)
#> # A tibble: 14 × 6
#>   Name          Profession Age   `Has kids` `Date of birth`     `Date of death`
#>   <chr>         <chr>      <chr> <chr>      <dttm>              <chr>          
#> 1 David Bowie   musician   69    TRUE       1947-01-08 00:00:00 42379          
#> 2 Carrie Fisher actor      60    TRUE       1956-10-21 00:00:00 42731          
#> 3 Chuck Berry   musician   90    TRUE       1926-10-18 00:00:00 42812          
#> 4 Bill Paxton   actor      61    TRUE       1955-05-17 00:00:00 42791          
#> 5 Prince        musician   57    TRUE       1958-06-07 00:00:00 42481          
#> 6 Alan Rickman  actor      69    FALSE      1946-02-21 00:00:00 42383          
#> # … with 8 more rows

We could also set n_max to omit the extraneous rows at the bottom.

read_excel(deaths_path, skip = 4, n_max = 10)
#> # A tibble: 10 × 6
#>   Name       Profession   Age `Has kids` `Date of birth`     `Date of death`    
#>   <chr>      <chr>      <dbl> <lgl>      <dttm>              <dttm>             
#> 1 David Bow… musician      69 TRUE       1947-01-08 00:00:00 2016-01-10 00:00:00
#> 2 Carrie Fi… actor         60 TRUE       1956-10-21 00:00:00 2016-12-27 00:00:00
#> 3 Chuck Ber… musician      90 TRUE       1926-10-18 00:00:00 2017-03-18 00:00:00
#> 4 Bill Paxt… actor         61 TRUE       1955-05-17 00:00:00 2017-02-25 00:00:00
#> 5 Prince     musician      57 TRUE       1958-06-07 00:00:00 2016-04-21 00:00:00
#> 6 Alan Rick… actor         69 FALSE      1946-02-21 00:00:00 2016-01-14 00:00:00
#> # … with 4 more rows
…
