9 데이터 불러오기 | R for Data Science
…
(패키지에 포함된 파일의 경로를 찾아 주는 readr_example()을 사용한 것에 주목하라.) 두 가지가 출력되었다. 첫 번째 1,000개의 행을 보고 생성된 열 상세 내용과 첫 다섯 개의 파싱 오류가 그것이다. 발생한 문제들을 ’problems()’로 명시적으로 추출하여 더 깊이 탐색하는 것은 좋은 방법이다.

problems(challenge)
#> # A tibble: 1,000 x 5
#>     row col   expected               actual             file              
#>   <int> <chr> <chr>                  <chr>              <chr>             
#> 1  1001 x     no trailing characters .23837975086644292 '/Library/Framewo…
#> 2  1002 x     no trailing characters .41167997173033655 '/Library/Framewo…
#> 3  1003 x     no trailing characters .7460716762579978  '/Library/Framewo…
#> 4  1004 x     no trailing characters .723450553836301   '/Library/Framewo…
#> 5  1005 x     no trailing characters .614524137461558   '/Library/Framewo…
#> 6  1006 x     no trailing characters .473980569280684   '/Library/Framewo…
#> # ... with 994 more rows
…
9.4.3 기타 전략

파일을 파싱하는 데 도움이 되는 몇 가지 다른 일반적인 전략이 있다.

앞의 예제에서 우리는 단지 운이 없었다. 즉, 기본값보다 한 행만 더 살펴보면 한 번에 정확하게 파싱할 수 있다.

challenge2 <- read_csv(readr_example("challenge.csv"), guess_max = 1001)
#> Parsed with column specification:
#> cols(
#>   x = col_double(),
#>   y = col_date(format = "")
#> )
challenge2
#> # A tibble: 2,000 x 2
#>       x y         
#>   <dbl> <date>    
#> 1   404 NA        
#> 2  4172 NA        
#> 3  3004 NA        
#> 4   787 NA        
#> 5    37 NA        
#> 6  2332 NA        
#> # ... with 1,994 more rows
…
항상 UTF-8로 문자열을 인코딩한다.

날짜와 날짜-시간을 ISO 8601 형식으로 저장하여 어디에서든 쉽게 파싱될 수 있게 한다.

CSV 파일을 엑셀로 내보내려면 write_excel_csv()를 사용하라. 이는 파일의 시작 부분에 특수 문자(‘byte order mark’)를 작성하여, UTF-8 인코딩을 사용하고 있음을 엑셀에 전달한다.

가장 중요한 인수는 x (저장할 데이터프레임)와 path (그 데이터프레임을 저장할 위치)이다. 결측값을 na로 작성하는 방법과 기존 파일에 첨부(append) 여부를 지정할 수도 있다.

write_csv(challenge, "challenge.csv")

CSV로 저장하면 유형 정보가 없어진다는 것에 유의하라.

challenge
#> # A tibble: 2,000 x 2
#>       x y         
#>   <dbl> <date>    
#> 1   404 NA        
#> 2  4172 NA        
#> 3  3004 NA        
#> 4   787 NA        
#> 5    37 NA        
#> 6  2332 NA        
#> # ... with 1,994 more rows
write_csv(challenge, "challenge-2.csv")
read_csv("challenge-2.csv")
#> Parsed with column specification:
#> cols(
#>   x = col_integer(),
#>   y = col_character()
#> )
#> # A tibble: 2,000 x 2
#>       x y    
#>   <int> <chr>
#> 1   404 <NA> 
#> 2  4172 <NA> 
#> 3  3004 <NA> 
#> 4   787 <NA> 
#> 5    37 <NA> 
#> 6  2332 <NA> 
#> # ... with 1,994 more rows

이런 이유로 중간 결과를 캐싱하기에 CSV를 아주 신뢰할 수 없다. 불러올 때마다 열 사양을 다시 만들어야 한다. 두 가지 대안이 있다.

write_rds() 과 read_rds() 는 베이스 함수인 readRDS() 와 saveRDS() 의 래퍼 함수들이다. 이들은 RDS라는 R의 커스텀 바이너리 형식으로 데이터를 저장한다.

write_rds(challenge, "challenge.rds")
read_rds("challenge.rds")
#> # A tibble: 2,000 x 2
#>       x y         
#>   <dbl> <date>    
#> 1   404 NA        
#> 2  4172 NA        
#> 3  3004 NA        
#> 4   787 NA        
#> 5    37 NA        
#> 6  2332 NA        
#> # ... with 1,994 more rows

feather 패키지는 다른 프로그래밍 언어와 공유할 수 있는 빠른 바이너리 파일 형식을 구현한다.

library(feather)
write_feather(challenge, "challenge.feather")
read_feather("challenge.feather")
#> # A tibble: 2,000 x 2
#>       x      y
#>   <dbl> <date>
#> 1   404   <NA>
#> 2  4172   <NA>
#> 3  3004   <NA>
#> 4   787   <NA>
#> 5    37   <NA>
#> 6  2332   <NA>
#> # ... with 1,994 more rows
…
