18 직사각형 데이터 | R 을 활용한 데이터과학
…
(패키지에 포함된 파일의 경로를 찾아 주는 readr_example() 을 사용한 것에 주목하라.)
두 가지가 출력되었다. 첫 번째 1,000 개의 행을 보고 생성된 열 상세 내용과
첫 다섯 개의 파싱 오류가 그것이다. 발생한 문제들을 ‘problems()’ 로 명시적으로 추출하여 더
깊이 탐색하는 것은 좋은 방법이다.

problems(challenge)
#> # A tibble: 1,000 × 5
#>     row col   expected           actual     file                                
#>   <int> <chr> <chr>              <chr>      <chr>                               
#> 1  1001 y     1/0/T/F/TRUE/FALSE 2015-01-16 '/Library/Frameworks/R.framework/Ve…
#> 2  1002 y     1/0/T/F/TRUE/FALSE 2018-05-18 '/Library/Frameworks/R.framework/Ve…
#> 3  1003 y     1/0/T/F/TRUE/FALSE 2015-09-05 '/Library/Frameworks/R.framework/Ve…
#> 4  1004 y     1/0/T/F/TRUE/FALSE 2012-11-28 '/Library/Frameworks/R.framework/Ve…
#> 5  1005 y     1/0/T/F/TRUE/FALSE 2020-01-13 '/Library/Frameworks/R.framework/Ve…
#> 6  1006 y     1/0/T/F/TRUE/FALSE 2016-04-17 '/Library/Frameworks/R.framework/Ve…
#> # … with 994 more rows
…
18.2.3 기타 전략

파일을 파싱하는 데 도움이 되는 몇 가지 다른 일반적인 전략이 있다.

앞의 예제에서 우리는 단지 운이 없었다. 즉, 기본값보다 한 행만 더 살펴보면 한 번에 정확하게 파싱할 수 있다.

challenge2 <- read_csv(readr_example("challenge.csv"), guess_max = 1001)
#> 
#> ── Column specification ────────────────────────────────────────────────────────
#> cols(
#>   x = col_double(),
#>   y = col_date(format = "")
#> )
challenge2
#> # A tibble: 2,000 × 2
#>       x y     
#>   <dbl> <date>
#> 1   404 NA    
#> 2  4172 NA    
#> 3  3004 NA    
#> 4   787 NA    
#> 5    37 NA    
#> 6  2332 NA    
#> # … with 1,994 more rows
…
