…
타이디 데이터에서 결측값을 명시적으로 표현하는 또 다른 중요한 도구로 `complete()` 가 있다.


```r
stocks %>%
  complete(year, qtr)
#> # A tibble: 8 × 3
#>    year   qtr return
#>   <dbl> <dbl>  <dbl>
#> 1  2015     1   1.88
#> 2  2015     2   0.59
#> 3  2015     3   0.35
#> 4  2015     4  NA   
#> 5  2016     1  NA   
#> 6  2016     2   0.92
#> # … with 2 more rows
```
…
