11 Relational data | R for Data Science
…
11.1.1 준비하기

We will explore relational data from nycflights13 using the two-table verbs from dplyr.

library(tidyverse)
library(nycflights13)

11.2 nycflights13

We will use the nycflights13 package to learn about relational data. nycflights13 contains four tibbles that are related to the flights table that you used in [data transformation]:

airlines lets you look up the full carrier name from its abbreviated code:

airlines
#> # A tibble: 16 x 2
#>   carrier name                    
#>   <chr>   <chr>                   
#> 1 9E      Endeavor Air Inc.       
#> 2 AA      American Airlines Inc.  
#> 3 AS      Alaska Airlines Inc.    
#> 4 B6      JetBlue Airways         
#> 5 DL      Delta Air Lines Inc.    
#> 6 EV      ExpressJet Airlines Inc.
#> # ... with 10 more rows

airports gives information about each airport, identified by the faa airport code:

airports
#> # A tibble: 1,458 x 8
#>   faa   name                             lat   lon   alt    tz dst   tzone
#>   <chr> <chr>                          <dbl> <dbl> <int> <dbl> <chr> <chr>
#> 1 04G   Lansdowne Airport               41.1 -80.6  1044    -5 A     Amer…
#> 2 06A   Moton Field Municipal Airport   32.5 -85.7   264    -6 A     Amer…
#> 3 06C   Schaumburg Regional             42.0 -88.1   801    -6 A     Amer…
#> 4 06N   Randall Airport                 41.4 -74.4   523    -5 A     Amer…
#> 5 09J   Jekyll Island Airport           31.1 -81.4    11    -5 A     Amer…
#> 6 0A9   Elizabethton Municipal Airport  36.4 -82.2  1593    -5 A     Amer…
#> # ... with 1,452 more rows

planes gives information about each plane, identified by its tailnum:

planes
#> # A tibble: 3,322 x 9
#>   tailnum  year type       manufacturer  model  engines seats speed engine
#>   <chr>   <int> <chr>      <chr>         <chr>    <int> <int> <int> <chr> 
#> 1 N10156   2004 Fixed win… EMBRAER       EMB-1…       2    55    NA Turbo…
#> 2 N102UW   1998 Fixed win… AIRBUS INDUS… A320-…       2   182    NA Turbo…
#> 3 N103US   1999 Fixed win… AIRBUS INDUS… A320-…       2   182    NA Turbo…
#> 4 N104UW   1999 Fixed win… AIRBUS INDUS… A320-…       2   182    NA Turbo…
#> 5 N10575   2002 Fixed win… EMBRAER       EMB-1…       2    55    NA Turbo…
#> 6 N105UW   1999 Fixed win… AIRBUS INDUS… A320-…       2   182    NA Turbo…
#> # ... with 3,316 more rows
…
11.5 Filtering joins

Filtering joins match observations in the same way as mutating joins, but affect the observations, not the variables. There are two types:

semi_join(x, y) keeps all observations in x that have a match in y.

anti_join(x, y) drops all observations in x that have a match in y.

Semi-joins are useful for matching filtered summary tables back to the original rows. For example, imagine you’ve found the top ten most popular destinations:

top_dest <- flights %>%
  count(dest, sort = TRUE) %>%
  head(10)
top_dest
#> # A tibble: 10 x 2
#>   dest      n
#>   <chr> <int>
#> 1 ORD   17283
#> 2 ATL   17215
#> 3 LAX   16174
#> 4 BOS   15508
#> 5 MCO   14082
#> 6 CLT   14064
#> # ... with 4 more rows
…
Anti-joins are useful for diagnosing join mismatches. For example, when connecting flights and planes, you might be interested to know that there are many flights that don’t have a match in planes:

flights %>%
  anti_join(planes, by = "tailnum") %>%
  count(tailnum, sort = TRUE)
#> # A tibble: 722 x 2
#>   tailnum     n
#>   <chr>   <int>
#> 1 <NA>     2512
#> 2 N725MQ    575
#> 3 N722MQ    513
#> 4 N723MQ    507
#> 5 N713MQ    483
#> 6 N735MQ    396
#> # ... with 716 more rows
…
