R for Data Science
…
tibble에 대해 이 장의 내용보다 더 자세히 배우고 싶으면 vignette("tibble")를 이용하면 된다.

10.1.1 준비하기

이 장에서는 tidyverse 패키지의 핵심 중 하나인 tibble 패키지를 살펴본다. 

library(tidyverse)

10.2 tibble 생성하기

이 책에서 사용하는 대부분의 함수는 tidyverse의 통합 특성 중 하나인 tibble을 생성한다. 대부분의 다른 R 패키지는 일반적인 데이터프레임을 사용하므로, 데이터프레임을 tibble로 강제 변환해야 할 경우가 있다. as_tibble()를 사용하면 된다.

as_tibble(iris)
#> # A tibble: 150 x 5
#>   Sepal.Length Sepal.Width Petal.Length Petal.Width Species
#>          <dbl>       <dbl>        <dbl>       <dbl> <fct>  
#> 1          5.1         3.5          1.4         0.2 setosa 
#> 2          4.9         3            1.4         0.2 setosa 
#> 3          4.7         3.2          1.3         0.2 setosa 
#> 4          4.6         3.1          1.5         0.2 setosa 
#> 5          5           3.6          1.4         0.2 setosa 
#> 6          5.4         3.9          1.7         0.4 setosa 
#> # ... with 144 more rows
…
tibble과 전통적인 data.frame의 용법에는 두 가지 주요 차이점이 있는데, 화면출력과 서브셋하기가 그것이다.

10.3.1 화면출력

tibble에는 처음 10 개의 행과, 화면에 들어가는 열 모두를 보여주는 정교한 화면출력 방법이 있다. 이를 이용하면 대용량 데이터 작업을 훨씬 쉽게 할 수 있다. 또한 str()에서 가져온 기능으로 각 열의 유형을 열이름과 더불어 표시한다.

tibble(
  a = lubridate::now() + runif(1e3) * 86400,
  b = lubridate::today() + runif(1e3) * 30,
  c = 1:1e3,
  d = runif(1e3),
  e = sample(letters, 1e3, replace = TRUE)
)
#> # A tibble: 1,000 x 5
#>   a                   b              c     d e    
#>   <dttm>              <date>     <int> <dbl> <chr>
#> 1 2018-11-28 20:29:49 2018-12-05     1 0.368 h    
#> 2 2018-11-29 14:34:58 2018-12-10     2 0.612 n    
#> 3 2018-11-29 08:58:37 2018-12-20     3 0.415 l    
#> 4 2018-11-28 22:19:55 2018-12-19     4 0.212 x    
#> 5 2018-11-28 18:44:11 2018-12-16     5 0.733 a    
#> 6 2018-11-29 05:45:08 2018-12-12     6 0.460 v    
#> # ... with 994 more rows
…
