…
Take careful note of the conflicts message that's printed when you load the tidyverse.
It tells you that dplyr overwrites some functions in base R.
If you want to use the base version of these functions after loading dplyr, you'll need to use their full names: `stats::filter()` and `stats::lag()`.

### nycflights13

To explore the basic dplyr verbs, we're going to look at `nycflights13::flights`.
This data frame contains all 336,776 flights that departed from New York City in 2013.
The data comes from the US [Bureau of Transportation Statistics](http://www.transtats.bts.gov/DatabaseInfo.asp?DB_ID=120&Link=0), and is documented in `?flights`.


```r
flights
#> # A tibble: 336,776 x 19
#>    year month   day dep_time sched_dep_time dep_delay arr_time sched_arr_time
#>   <int> <int> <int>    <int>          <int>     <dbl>    <int>          <int>
#> 1  2013     1     1      517            515         2      830            819
#> 2  2013     1     1      533            529         4      850            830
#> 3  2013     1     1      542            540         2      923            850
#> 4  2013     1     1      544            545        -1     1004           1022
#> 5  2013     1     1      554            600        -6      812            837
#> 6  2013     1     1      554            558        -4      740            728
#> # ... with 336,770 more rows, and 11 more variables: arr_delay <dbl>,
#> #   carrier <chr>, flight <int>, tailnum <chr>, origin <chr>, dest <chr>,
#> #   air_time <dbl>, distance <dbl>, hour <dbl>, minute <dbl>, time_hour <dttm>
```
…
### `filter()`

`filter()` allows you to choose rows based on their values[^data-transform-1].
The first argument is the name of the data frame.
The second and subsequent arguments are the expressions that filter the data frame.
For example, we can select all flights on January 1st with:

  [^data-transform-1]: Later, you'll learn about the `slice_*()` family which allows you to choose rows based on their positions


```r
filter(flights, month == 1, day == 1)
#> # A tibble: 842 x 19
#>    year month   day dep_time sched_dep_time dep_delay arr_time sched_arr_time
#>   <int> <int> <int>    <int>          <int>     <dbl>    <int>          <int>
#> 1  2013     1     1      517            515         2      830            819
#> 2  2013     1     1      533            529         4      850            830
#> 3  2013     1     1      542            540         2      923            850
#> 4  2013     1     1      544            545        -1     1004           1022
#> 5  2013     1     1      554            600        -6      812            837
#> 6  2013     1     1      554            558        -4      740            728
#> # ... with 836 more rows, and 11 more variables: arr_delay <dbl>,
#> #   carrier <chr>, flight <int>, tailnum <chr>, origin <chr>, dest <chr>,
#> #   air_time <dbl>, distance <dbl>, hour <dbl>, minute <dbl>, time_hour <dttm>
```
…
### `arrange()`

`arrange()` works similarly to `filter()` except that instead of selecting rows, it changes their order.
It takes a data frame and a set of column names (or more complicated expressions) to order by.
If you provide more than one column name, each additional column will be used to break ties in the values of preceding columns:


```r
arrange(flights, year, month, day)
#> # A tibble: 336,776 x 19
#>    year month   day dep_time sched_dep_time dep_delay arr_time sched_arr_time
#>   <int> <int> <int>    <int>          <int>     <dbl>    <int>          <int>
#> 1  2013     1     1      517            515         2      830            819
#> 2  2013     1     1      533            529         4      850            830
#> 3  2013     1     1      542            540         2      923            850
#> 4  2013     1     1      544            545        -1     1004           1022
#> 5  2013     1     1      554            600        -6      812            837
#> 6  2013     1     1      554            558        -4      740            728
#> # ... with 336,770 more rows, and 11 more variables: arr_delay <dbl>,
#> #   carrier <chr>, flight <int>, tailnum <chr>, origin <chr>, dest <chr>,
#> #   air_time <dbl>, distance <dbl>, hour <dbl>, minute <dbl>, time_hour <dttm>
```

You can use `desc()` to re-order by a column in descending order:


```r
arrange(flights, desc(dep_delay))
#> # A tibble: 336,776 x 19
#>    year month   day dep_time sched_dep_time dep_delay arr_time sched_arr_time
#>   <int> <int> <int>    <int>          <int>     <dbl>    <int>          <int>
#> 1  2013     1     9      641            900      1301     1242           1530
#> 2  2013     6    15     1432           1935      1137     1607           2120
#> 3  2013     1    10     1121           1635      1126     1239           1810
#> 4  2013     9    20     1139           1845      1014     1457           2210
#> 5  2013     7    22      845           1600      1005     1044           1815
#> 6  2013     4    10     1100           1900       960     1342           2211
#> # ... with 336,770 more rows, and 11 more variables: arr_delay <dbl>,
#> #   carrier <chr>, flight <int>, tailnum <chr>, origin <chr>, dest <chr>,
#> #   air_time <dbl>, distance <dbl>, hour <dbl>, minute <dbl>, time_hour <dttm>
```
…
### `mutate()`

The job of `mutate()` is to add new columns that are functions of existing column.
In the later chapters, you'll learn the full set of functions that you can use to manipulate different types of variables.
For now, we'll stick with basic mathematical operators, which allows us to compute the `gain`, how much time a delayed flight made up in the air, and the `speed` in miles per hour:

  
  ```r
  mutate(flights,
       gain = dep_delay - arr_delay,
       speed = distance / air_time * 60
  )
  #> # A tibble: 336,776 x 21
  #>    year month   day dep_time sched_dep_time dep_delay arr_time sched_arr_time
  #>   <int> <int> <int>    <int>          <int>     <dbl>    <int>          <int>
  #> 1  2013     1     1      517            515         2      830            819
  #> 2  2013     1     1      533            529         4      850            830
  #> 3  2013     1     1      542            540         2      923            850
  #> 4  2013     1     1      544            545        -1     1004           1022
  #> 5  2013     1     1      554            600        -6      812            837
  #> 6  2013     1     1      554            558        -4      740            728
  #> # ... with 336,770 more rows, and 13 more variables: arr_delay <dbl>,
  #> #   carrier <chr>, flight <int>, tailnum <chr>, origin <chr>, dest <chr>,
  #> #   air_time <dbl>, distance <dbl>, hour <dbl>, minute <dbl>, time_hour <dttm>,
  #> #   gain <dbl>, speed <dbl>
  ```

By default, `mutate()` adds new columns at the right hand side of your dataset, which makes it hard to see what's happening here.
We can use the `.before` argument to instead add the variables to the left hand side[^data-transform-2]:

[^data-transform-2]: Remember that when you're in RStudio, the easiest way to see all the columns is `View()`.


```r
mutate(flights,
       gain = dep_delay - arr_delay,
       speed = distance / air_time * 60,
       .before = 1
)
#> # A tibble: 336,776 x 21
#>    gain speed  year month   day dep_time sched_dep_time dep_delay arr_time
#>   <dbl> <dbl> <int> <int> <int>    <int>          <int>     <dbl>    <int>
#> 1    -9  370.  2013     1     1      517            515         2      830
#> 2   -16  374.  2013     1     1      533            529         4      850
#> 3   -31  408.  2013     1     1      542            540         2      923
#> 4    17  517.  2013     1     1      544            545        -1     1004
#> 5    19  394.  2013     1     1      554            600        -6      812
#> 6   -16  288.  2013     1     1      554            558        -4      740
#> # ... with 336,770 more rows, and 12 more variables: sched_arr_time <int>,
#> #   arr_delay <dbl>, carrier <chr>, flight <int>, tailnum <chr>, origin <chr>,
#> #   dest <chr>, air_time <dbl>, distance <dbl>, hour <dbl>, minute <dbl>,
#> #   time_hour <dttm>
```

The leading `.` is a sign that `.before` is an argument to the function, not a new variable being created.
You can also use `.after` to add after a variable, and use a variable name instead of a position:

  
  ```r
  mutate(flights,
       gain = dep_delay - arr_delay,
       speed = distance / air_time * 60,
       .after = day
  )
  #> # A tibble: 336,776 x 21
  #>    year month   day  gain speed dep_time sched_dep_time dep_delay arr_time
  #>   <int> <int> <int> <dbl> <dbl>    <int>          <int>     <dbl>    <int>
  #> 1  2013     1     1    -9  370.      517            515         2      830
  #> 2  2013     1     1   -16  374.      533            529         4      850
  #> 3  2013     1     1   -31  408.      542            540         2      923
  #> 4  2013     1     1    17  517.      544            545        -1     1004
  #> 5  2013     1     1    19  394.      554            600        -6      812
  #> 6  2013     1     1   -16  288.      554            558        -4      740
  #> # ... with 336,770 more rows, and 12 more variables: sched_arr_time <int>,
  #> #   arr_delay <dbl>, carrier <chr>, flight <int>, tailnum <chr>, origin <chr>,
  #> #   dest <chr>, air_time <dbl>, distance <dbl>, hour <dbl>, minute <dbl>,
  #> #   time_hour <dttm>
  ```

Alternatively, can control which variables are kept with the `.keep` argument:

  
  ```r
  mutate(flights,
       gain = dep_delay - arr_delay,
       hours = air_time / 60,
       gain_per_hour = gain / hours,
       .keep = "none"
  )
  #> # A tibble: 336,776 x 3
  #>    gain hours gain_per_hour
  #>   <dbl> <dbl>         <dbl>
  #> 1    -9  3.78         -2.38
  #> 2   -16  3.78         -4.23
  #> 3   -31  2.67        -11.6 
  #> 4    17  3.05          5.57
  #> 5    19  1.93          9.83
  #> 6   -16  2.5          -6.4 
  #> # ... with 336,770 more rows
  ```

### `select()` {#select}

It's not uncommon to get datasets with hundreds or even thousands of variables.
In this case, the first challenge is often narrowing in on the variables you're actually interested in.
`select()` allows you to rapidly zoom in on a useful subset using operations based on the names of the variables.

`select()` is not terribly useful with the flights data because we only have 19 variables, but you can still get the general idea of how it works:

  
  ```r
  # Select columns by name
  select(flights, year, month, day)
  #> # A tibble: 336,776 x 3
  #>    year month   day
  #>   <int> <int> <int>
  #> 1  2013     1     1
  #> 2  2013     1     1
  #> 3  2013     1     1
  #> 4  2013     1     1
  #> 5  2013     1     1
  #> 6  2013     1     1
  #> # ... with 336,770 more rows
  # Select all columns between year and day (inclusive)
  select(flights, year:day)
  #> # A tibble: 336,776 x 3
  #>    year month   day
  #>   <int> <int> <int>
  #> 1  2013     1     1
  #> 2  2013     1     1
  #> 3  2013     1     1
  #> 4  2013     1     1
  #> 5  2013     1     1
  #> 6  2013     1     1
  #> # ... with 336,770 more rows
  # Select all columns except those from year to day (inclusive)
  select(flights, -(year:day))
  #> # A tibble: 336,776 x 16
  #>   dep_time sched_dep_time dep_delay arr_time sched_arr_time arr_delay carrier
  #>      <int>          <int>     <dbl>    <int>          <int>     <dbl> <chr>  
  #> 1      517            515         2      830            819        11 UA     
  #> 2      533            529         4      850            830        20 UA     
  #> 3      542            540         2      923            850        33 AA     
  #> 4      544            545        -1     1004           1022       -18 B6     
  #> 5      554            600        -6      812            837       -25 DL     
  #> 6      554            558        -4      740            728        12 UA     
  #> # ... with 336,770 more rows, and 9 more variables: flight <int>,
  #> #   tailnum <chr>, origin <chr>, dest <chr>, air_time <dbl>, distance <dbl>,
  #> #   hour <dbl>, minute <dbl>, time_hour <dttm>
  ```
…
-   `contains("ijk")`: matches names that contain "ijk".

-   `num_range("x", 1:3)`: matches `x1`, `x2` and `x3`.

See `?select` for more details.
Once you know regular expressions (the topic of Chapter \@ref(regular-expressions)) you'll also be use `matches()` to select variables that match a regexp.

You can rename variables as you `select()` them by using `=`.
The new name appears on the left hand side of the `=`, and the old variable appears on the right hand side:


```r
select(flights, tail_num = tailnum)
#> # A tibble: 336,776 x 1
#>   tail_num
#>   <chr>   
#> 1 N14228  
#> 2 N24211  
#> 3 N619AA  
#> 4 N804JB  
#> 5 N668DN  
#> 6 N39463  
#> # ... with 336,770 more rows
```

### `rename()`

If you just want to keep all the existing variables and just want to rename a few, you can use `rename()` instead of `select()`:


```r
rename(flights, tail_num = tailnum)
#> # A tibble: 336,776 x 19
#>    year month   day dep_time sched_dep_time dep_delay arr_time sched_arr_time
#>   <int> <int> <int>    <int>          <int>     <dbl>    <int>          <int>
#> 1  2013     1     1      517            515         2      830            819
#> 2  2013     1     1      533            529         4      850            830
#> 3  2013     1     1      542            540         2      923            850
#> 4  2013     1     1      544            545        -1     1004           1022
#> 5  2013     1     1      554            600        -6      812            837
#> 6  2013     1     1      554            558        -4      740            728
#> # ... with 336,770 more rows, and 11 more variables: arr_delay <dbl>,
#> #   carrier <chr>, flight <int>, tail_num <chr>, origin <chr>, dest <chr>,
#> #   air_time <dbl>, distance <dbl>, hour <dbl>, minute <dbl>, time_hour <dttm>
```

It works exactly the same way as `select()`, but keeps all the variables that aren't explicitly selected.

### `relocate()`

You can move variables around with `relocate`.
By default it moves variables to the front:

  
  ```r
  relocate(flights, time_hour, air_time)
  #> # A tibble: 336,776 x 19
  #>   time_hour           air_time  year month   day dep_time sched_dep_time
  #>   <dttm>                 <dbl> <int> <int> <int>    <int>          <int>
  #> 1 2013-01-01 05:00:00      227  2013     1     1      517            515
  #> 2 2013-01-01 05:00:00      227  2013     1     1      533            529
  #> 3 2013-01-01 05:00:00      160  2013     1     1      542            540
  #> 4 2013-01-01 05:00:00      183  2013     1     1      544            545
  #> 5 2013-01-01 06:00:00      116  2013     1     1      554            600
  #> 6 2013-01-01 05:00:00      150  2013     1     1      554            558
  #> # ... with 336,770 more rows, and 12 more variables: dep_delay <dbl>,
  #> #   arr_time <int>, sched_arr_time <int>, arr_delay <dbl>, carrier <chr>,
  #> #   flight <int>, tailnum <chr>, origin <chr>, dest <chr>, distance <dbl>,
  #> #   hour <dbl>, minute <dbl>
  ```

But you can use the `.before` and `.after` arguments to choose where to place them:

  
  ```r
  relocate(flights, year:dep_time, .after = time_hour)
  #> # A tibble: 336,776 x 19
  #>   sched_dep_time dep_delay arr_time sched_arr_time arr_delay carrier flight
  #>            <int>     <dbl>    <int>          <int>     <dbl> <chr>    <int>
  #> 1            515         2      830            819        11 UA        1545
  #> 2            529         4      850            830        20 UA        1714
  #> 3            540         2      923            850        33 AA        1141
  #> 4            545        -1     1004           1022       -18 B6         725
  #> 5            600        -6      812            837       -25 DL         461
  #> 6            558        -4      740            728        12 UA        1696
  #> # ... with 336,770 more rows, and 12 more variables: tailnum <chr>,
  #> #   origin <chr>, dest <chr>, air_time <dbl>, distance <dbl>, hour <dbl>,
  #> #   minute <dbl>, time_hour <dttm>, year <int>, month <int>, day <int>,
  #> #   dep_time <int>
  relocate(flights, starts_with("arr"), .before = dep_time)
  #> # A tibble: 336,776 x 19
  #>    year month   day arr_time arr_delay dep_time sched_dep_time dep_delay
  #>   <int> <int> <int>    <int>     <dbl>    <int>          <int>     <dbl>
  #> 1  2013     1     1      830        11      517            515         2
  #> 2  2013     1     1      850        20      533            529         4
  #> 3  2013     1     1      923        33      542            540         2
  #> 4  2013     1     1     1004       -18      544            545        -1
  #> 5  2013     1     1      812       -25      554            600        -6
  #> 6  2013     1     1      740        12      554            558        -4
  #> # ... with 336,770 more rows, and 11 more variables: sched_arr_time <int>,
  #> #   carrier <chr>, flight <int>, tailnum <chr>, origin <chr>, dest <chr>,
  #> #   air_time <dbl>, distance <dbl>, hour <dbl>, minute <dbl>, time_hour <dttm>
  ```
…
## Groups

The real power of dplyr comes when you add grouping into the mix.
The two key functions are `group_by()` and `summarise()`, but as you'll learn `group_by()` affects many other dplyr verbs in interesting ways.

### `group_by()`

Use `group_by()` to divide your dataset into groups meaningful for your analysis:

  
  ```r
  by_month <- group_by(flights, month)
  by_month
  #> # A tibble: 336,776 x 19
  #> # Groups:   month [12]
  #>    year month   day dep_time sched_dep_time dep_delay arr_time sched_arr_time
  #>   <int> <int> <int>    <int>          <int>     <dbl>    <int>          <int>
  #> 1  2013     1     1      517            515         2      830            819
  #> 2  2013     1     1      533            529         4      850            830
  #> 3  2013     1     1      542            540         2      923            850
  #> 4  2013     1     1      544            545        -1     1004           1022
  #> 5  2013     1     1      554            600        -6      812            837
  #> 6  2013     1     1      554            558        -4      740            728
  #> # ... with 336,770 more rows, and 11 more variables: arr_delay <dbl>,
  #> #   carrier <chr>, flight <int>, tailnum <chr>, origin <chr>, dest <chr>,
  #> #   air_time <dbl>, distance <dbl>, hour <dbl>, minute <dbl>, time_hour <dttm>
  ```
`group_by()` doesn't change the data but, if you look closely, you'll notice that it's now "grouped by" month.
The reason to group your data is because it changes the operation of subsequent verbs.

### `summarise()`

The most important operation that you might apply to grouped data is a summary.
It collapses each group to a single row[^data-transform-3].
Here we compute the average departure delay by month:

[^data-transform-3]: This is a slightly simplification; later on you'll learn how to use `summarise()` to produce multiple summary rows for each group.


```r
summarise(by_month, delay = mean(dep_delay, na.rm = TRUE))
#> # A tibble: 12 x 2
#>   month delay
#>   <int> <dbl>
#> 1     1  10.0
#> 2     2  10.8
#> 3     3  13.2
#> 4     4  13.9
#> 5     5  13.0
#> 6     6  20.8
#> # ... with 6 more rows
```

You can create any number of summaries in a single call to `summarise()`.
You'll learn various useful summaries in the upcoming chapters on individual data types, but one very useful summary is `n()`, which returns the number of rows in each group:


```r
summarise(by_month, delay = mean(dep_delay, na.rm = TRUE), n = n())
#> # A tibble: 12 x 3
#>   month delay     n
#>   <int> <dbl> <int>
#> 1     1  10.0 27004
#> 2     2  10.8 24951
#> 3     3  13.2 28834
#> 4     4  13.9 28330
#> 5     5  13.0 28796
#> 6     6  20.8 28243
#> # ... with 6 more rows
```
…
