7 팩터형 | R 을 활용한 데이터과학
…
만약 유효한 레벨 집합에 직접 접근하려면 levels() 로 할 수 있다.

levels(f2)
#> [1] "Dec" "Apr" "Jan" "Mar"

7.3 General Social Survey

이 장의 남은 부분에서는 forcats::gss_cat 에 초점을 맞출 것이다. 이는 시카고 대학 독립 연구기관인 NORC에서 장기간 수행한 General Social Survey 의 샘플 데이터이다. 이 설문조사에는 수천 개의 문항이 있는데, 이 중에서 팩터형과 작업할 때 자주 발생하는 문제를 보여주는 것들을 gss_cat 으로 선택했다.

gss_cat
#> # A tibble: 21,483 x 9
#>    year marital      age race  rincome    partyid     relig     denom    tvhours
#>   <int> <fct>      <int> <fct> <fct>      <fct>       <fct>     <fct>      <int>
#> 1  2000 Never mar…    26 White $8000 to … Ind,near r… Protesta… Souther…      12
#> 2  2000 Divorced      48 White $8000 to … Not str re… Protesta… Baptist…      NA
#> 3  2000 Widowed       67 White Not appli… Independent Protesta… No deno…       2
#> 4  2000 Never mar…    39 White Not appli… Ind,near r… Orthodox… Not app…       4
#> 5  2000 Divorced      25 White Not appli… Not str de… None      Not app…       1
#> 6  2000 Married       25 White $20000 - … Strong dem… Protesta… Souther…      NA
#> # … with 21,477 more rows
…
7.4.1 연습문제

tvhours 에 의심스러운 큰 숫자들이 몇 있다. 평균(mean)은 좋은 요약값인가?

gss_cat 의 각 팩터형에 대해 레벨의 순서가 임의적인지 원칙적인지를 확인하라.

’해당 없음’을 레벨 앞으로 옮기면, 왜 플롯의 맨 아래로 옮겨지는가?

7.5 팩터 레벨 수정하기

레벨의 순서 변경보다 값을 변경하는 게 더 강력한 방법이다. 이렇게 하면 화면 출력 시 라벨을 명확히 할 수 있고, 레벨을 병합하여 상위 레벨 시각화를 할 수 있다. 가장 일반적이고 강력한 것은 fct_recode() 이다. 이를 사용하여 각 레벨값을 다시 주거나 변경할 수 있다. 예를 들어 gss_cat$partyid 를 보자.

gss_cat %>% count(partyid)
#> # A tibble: 10 x 2
#>   partyid                n
#>   <fct>              <int>
#> 1 No answer            154
#> 2 Don't know             1
#> 3 Other party          393
#> 4 Strong republican   2314
#> 5 Not str republican  3032
#> 6 Ind,near rep        1791
#> # … with 4 more rows

이 레벨들은 짧고 일관성이 없다. 이 레벨들을 풀어쓰고, 병렬 구조를 사용해보자.

gss_cat %>%
  mutate(partyid = fct_recode(partyid,
    "Republican, strong"    = "Strong republican",
    "Republican, weak"      = "Not str republican",
    "Independent, near rep" = "Ind,near rep",
    "Independent, near dem" = "Ind,near dem",
    "Democrat, weak"        = "Not str democrat",
    "Democrat, strong"      = "Strong democrat"
  )) %>%
  count(partyid)
#> # A tibble: 10 x 2
#>   partyid                   n
#>   <fct>                 <int>
#> 1 No answer               154
#> 2 Don't know                1
#> 3 Other party             393
#> 4 Republican, strong     2314
#> 5 Republican, weak       3032
#> 6 Independent, near rep  1791
#> # … with 4 more rows
…
gss_cat %>%
  mutate(partyid = fct_recode(partyid,
    "Republican, strong"    = "Strong republican",
    "Republican, weak"      = "Not str republican",
    "Independent, near rep" = "Ind,near rep",
    "Independent, near dem" = "Ind,near dem",
    "Democrat, weak"        = "Not str democrat",
    "Democrat, strong"      = "Strong democrat",
    "Other"                 = "No answer",
    "Other"                 = "Don't know",
    "Other"                 = "Other party"
  )) %>%
  count(partyid)
#> # A tibble: 8 x 2
#>   partyid                   n
#>   <fct>                 <int>
#> 1 Other                   548
#> 2 Republican, strong     2314
#> 3 Republican, weak       3032
#> 4 Independent, near rep  1791
#> 5 Independent            4119
#> 6 Independent, near dem  2499
#> # … with 2 more rows
…
