…
1.  `tvhours` 에 의심스러운 큰 숫자들이 몇 있다. 평균(mean)은 좋은 요약값인가? 

1. `gss_cat` 의 각 팩터형에 대해 레벨의 순서가 임의적인지 원칙적인지를 확인하라.

1. ’해당 없음’을 레벨 앞으로 옮기면, 왜 플롯의 맨 아래로 옮겨지는가?
 
## 팩터 레벨 수정하기

레벨의 순서를 변경하는 것보다 더 강력한 것은 값을 변경하는 것이다. 이렇게 하면 출판 시 라벨을 명확히 할 수 있고, 레벨을 병합하여 상위 레벨 시각화를 할 수 있다. 가장 일반적이고 강력한 것은 `fct_recode()` 이다. 이를 사용하여 각 레벨값을 다시 코드하거나, 변경할 수 있다. 예를 들어 `gss_cat$partyid` 를 보자.


```r
gss_cat %>% count(partyid)
#> # A tibble: 10 x 2
#>   partyid                n
#>   <fct>              <int>
#> 1 No answer            154
#> 2 Don't know             1
#> 3 Other party          393
#> 4 Strong republican   2314
#> 5 Not str republican  3032
#> 6 Ind,near rep        1791
#> # ... with 4 more rows
```
이 레벨들은 짧고 일관성이 없다. 이 레벨들을 풀어쓰고, 병렬 구조를 사용해보자. 


```r
gss_cat %>%
  mutate(partyid = fct_recode(partyid,
    "Republican, strong"    = "Strong republican",
    "Republican, weak"      = "Not str republican",
    "Independent, near rep" = "Ind,near rep",
    "Independent, near dem" = "Ind,near dem",
    "Democrat, weak"        = "Not str democrat",
    "Democrat, strong"      = "Strong democrat"
  )) %>%
  count(partyid)
#> # A tibble: 10 x 2
#>   partyid                   n
#>   <fct>                 <int>
#> 1 No answer               154
#> 2 Don't know                1
#> 3 Other party             393
#> 4 Republican, strong     2314
#> 5 Republican, weak       3032
#> 6 Independent, near rep  1791
#> # ... with 4 more rows
```
…
```r
gss_cat %>%
  mutate(partyid = fct_recode(partyid,
    "Republican, strong"    = "Strong republican",
    "Republican, weak"      = "Not str republican",
    "Independent, near rep" = "Ind,near rep",
    "Independent, near dem" = "Ind,near dem",
    "Democrat, weak"        = "Not str democrat",
    "Democrat, strong"      = "Strong democrat",
    "Other"                 = "No answer",
    "Other"                 = "Don't know",
    "Other"                 = "Other party"
  )) %>%
  count(partyid)
#> # A tibble: 8 x 2
#>   partyid                   n
#>   <fct>                 <int>
#> 1 Other                   548
#> 2 Republican, strong     2314
#> 3 Republican, weak       3032
#> 4 Independent, near rep  1791
#> 5 Independent            4119
#> 6 Independent, near dem  2499
#> # ... with 2 more rows
```
…
