…
*   앞의 예제에서 우리는 단지 운이 없었다. 즉, 기본값보다 한 행만 더 살펴보면 한 번에 정확하게 파싱할 수 있다.

    
    ```r
    challenge2 <- read_csv(readr_example("challenge.csv"), guess_max = 1001)
    #> Rows: 2000 Columns: 2
    #> -- Column specification --------------------------------------------------------
    #> Delimiter: ","
    #> dbl  (1): x
    #> date (1): y
    #> 
    #> i Use `spec()` to retrieve the full column specification for this data.
    #> i Specify the column types or set `show_col_types = FALSE` to quiet this message.
    challenge2
    #> # A tibble: 2,000 x 2
    #>       x y     
    #>   <dbl> <date>
    #> 1   404 NA    
    #> 2  4172 NA    
    #> 3  3004 NA    
    #> 4   787 NA    
    #> 5    37 NA    
    #> 6  2332 NA    
    #> # ... with 1,994 more rows
    ```
…
CSV 파일을 엑셀로 내보내려면 `write_excel_csv()` 를 사용하라. 이는 파일의 시작 부분에 특수 문자(‘byte order mark’)를 작성하여, UTF-8 인코딩을 사용하고 있음을 엑셀에 전달한다.

가장 중요한 인수는 `x` (저장할 데이터프레임)와 `path` (그 데이터프레임을 저장할 위치)이다. 결측값을 지정하는 인수, `na` 와 기존 파일에 첨부할지를 지정하는 인수 `append` 도 있다.


```r
write_csv(challenge, "challenge.csv")
```

CSV 로 저장하면 유형 정보가 없어진다는 것에 유의하라.


```r
challenge
#> # A tibble: 2,000 x 2
#>       x y     
#>   <dbl> <date>
#> 1   404 NA    
#> 2  4172 NA    
#> 3  3004 NA    
#> 4   787 NA    
#> 5    37 NA    
#> 6  2332 NA    
#> # ... with 1,994 more rows
write_csv(challenge, "challenge-2.csv")
read_csv("challenge-2.csv")
#> Rows: 2000 Columns: 2
#> -- Column specification --------------------------------------------------------
#> Delimiter: ","
#> dbl  (1): x
#> date (1): y
#> 
#> i Use `spec()` to retrieve the full column specification for this data.
#> i Specify the column types or set `show_col_types = FALSE` to quiet this message.
#> # A tibble: 2,000 x 2
#>       x y     
#>   <dbl> <date>
#> 1   404 NA    
#> 2  4172 NA    
#> 3  3004 NA    
#> 4   787 NA    
#> 5    37 NA    
#> 6  2332 NA    
#> # ... with 1,994 more rows
```

이런 이유로 중간 결과를 캐싱하기에 CSV 를 아주 신뢰할 수 없다. 불러올 때마다 열 사양을 다시 만들어야 한다. 두 가지 대안이 있다.

1.  `write_rds()` 과 `read_rds()` 는 베이스 함수인 `readRDS()` 와 `saveRDS()` 의 래퍼 함수들이다. 이들은 RDS 라는 R 의 커스텀 바이너리 형식으로 데이터를 저장한다.

    
    ```r
    write_rds(challenge, "challenge.rds")
    read_rds("challenge.rds")
    #> # A tibble: 2,000 x 2
    #>       x y     
    #>   <dbl> <date>
    #> 1   404 NA    
    #> 2  4172 NA    
    #> 3  3004 NA    
    #> 4   787 NA    
    #> 5    37 NA    
    #> 6  2332 NA    
    #> # ... with 1,994 more rows
    ```
  
1.  feather 패키지는 다른 프로그래밍 언어와 공유할 수 있는 빠른 바이너리 파일 형식을 구현한다.
    
    
    ```r
    library(feather)
    write_feather(challenge, "challenge.feather")
    read_feather("challenge.feather")
    #> # A tibble: 2,000 x 2
    #>       x      y
    #>   <dbl> <date>
    #> 1   404   <NA>
    #> 2  4172   <NA>
    #> 3  3004   <NA>
    #> 4   787   <NA>
    #> 5    37   <NA>
    #> 6  2332   <NA>
    #> # ... with 1,994 more rows
    ```
…
