…
```r
library(tidyverse)
library(nycflights13)
```

## nycflights13 {#nycflights13-relational}

관계형 데이터에 대해 배우기 위해 **nycflights13**  패키지를 사용할 것이다. **nycflights13**  패키지에는 3장에서 사용한 `flights`  테이블과 관련된 4개의 티블이 있다.

* `airlines` 를 사용하면 해당 약어 코드로 전체 항공사명을 찾아볼 수 있다.

    
    ```r
    airlines
    #> # A tibble: 16 x 2
    #>   carrier name                    
    #>   <chr>   <chr>                   
    #> 1 9E      Endeavor Air Inc.       
    #> 2 AA      American Airlines Inc.  
    #> 3 AS      Alaska Airlines Inc.    
    #> 4 B6      JetBlue Airways         
    #> 5 DL      Delta Air Lines Inc.    
    #> 6 EV      ExpressJet Airlines Inc.
    #> # ... with 10 more rows
    ```

*   `airports` 에는 각 공항에 대한 정보가 `faa`  공항 코드로 식별되어 있다.

    
    ```r
    airports
    #> # A tibble: 1,458 x 8
    #>   faa   name                             lat   lon   alt    tz dst   tzone
    #>   <chr> <chr>                          <dbl> <dbl> <int> <dbl> <chr> <chr>
    #> 1 04G   Lansdowne Airport               41.1 -80.6  1044    -5 A     Amer…
    #> 2 06A   Moton Field Municipal Airport   32.5 -85.7   264    -6 A     Amer…
    #> 3 06C   Schaumburg Regional             42.0 -88.1   801    -6 A     Amer…
    #> 4 06N   Randall Airport                 41.4 -74.4   523    -5 A     Amer…
    #> 5 09J   Jekyll Island Airport           31.1 -81.4    11    -5 A     Amer…
    #> 6 0A9   Elizabethton Municipal Airport  36.4 -82.2  1593    -5 A     Amer…
    #> # ... with 1,452 more rows
    ```

*   `planes` 에는 각 여객기에 대한 정보가 `tailnum` 으로 식별되어 있다.

    
    ```r
    planes
    #> # A tibble: 3,322 x 9
    #>   tailnum  year type       manufacturer  model  engines seats speed engine
    #>   <chr>   <int> <chr>      <chr>         <chr>    <int> <int> <int> <chr> 
    #> 1 N10156   2004 Fixed win… EMBRAER       EMB-1…       2    55    NA Turbo…
    #> 2 N102UW   1998 Fixed win… AIRBUS INDUS… A320-…       2   182    NA Turbo…
    #> 3 N103US   1999 Fixed win… AIRBUS INDUS… A320-…       2   182    NA Turbo…
    #> 4 N104UW   1999 Fixed win… AIRBUS INDUS… A320-…       2   182    NA Turbo…
    #> 5 N10575   2002 Fixed win… EMBRAER       EMB-1…       2    55    NA Turbo…
    #> 6 N105UW   1999 Fixed win… AIRBUS INDUS… A320-…       2   182    NA Turbo…
    #> # ... with 3,316 more rows
    ```
…
필터링 조인(Filtering join)은 뮤테이팅 조인과 같은 방식으로 관측값을 매칭하지만 변수가 아닌 관측값에 영향을 준다. 두 가지 유형이 있다.

* `semi_join(x, y)` 는 `y` 와 매치되는 `x` 의 모든 관측값을 **보존한다** .
* `anti_join(x, y)` 는 `y` 와 매치되는 `x` 의 모든 관측값을 **삭제한다** .

세미 조인(Semi-joins)은 필터링된 요약 테이블을 다시 원래 행과 매치시키는 데 유용하다. 예를 들어 가장 인기 있는 상위 10개 도착지를 구했다고 가정해보자.


```r
top_dest <- flights %>%
  count(dest, sort = TRUE) %>%
  head(10)
top_dest
#> # A tibble: 10 x 2
#>   dest      n
#>   <chr> <int>
#> 1 ORD   17283
#> 2 ATL   17215
#> 3 LAX   16174
#> 4 BOS   15508
#> 5 MCO   14082
#> 6 CLT   14064
#> # ... with 4 more rows
```
…
<img src="diagrams/join-semi-many.png" width="312" style="display: block; margin: auto;" />

세미 조인의 반대는 안티 조인이다. 안티 조인은 매칭되지 않는 행을 보존한다.

<img src="diagrams/join-anti.png" width="307" style="display: block; margin: auto;" />

안티 조인(Anti-join)은 조인 불일치를 진단하는 데 유용하다. 예를 들어 `flights`과 `planes` 를 연결하는 경우, `planes` 에 매치되지 않는 `flights` 이 많다는 것을 알고 싶을 수 있다.


```r
flights %>%
  anti_join(planes, by = "tailnum") %>%
  count(tailnum, sort = TRUE)
#> # A tibble: 722 x 2
#>   tailnum     n
#>   <chr>   <int>
#> 1 <NA>     2512
#> 2 N725MQ    575
#> 3 N722MQ    513
#> 4 N723MQ    507
#> 5 N713MQ    483
#> 6 N735MQ    396
#> # ... with 716 more rows
```
…
