23 R 마크다운 | R 을 활용한 데이터과학
…
RStudio에서는 니트 드롭 다운 메뉴에서 ’파라미터와 함께 니트(Knit with Parameters)’ 옵션을 클릭하여 파라미터를 설정하고, 보고서 렌더링 및 미리보기를 한 단계로 할 수 있다. 헤더의 다른 옵션을 설정하여 대화 상자를 사용자 정의할 수 있다. 자세한 내용은 다음을 참조하라. http://rmarkdown.rstudio.com/developer_parameterized_reports.html#parameter_user_interfaces

또는 여러 개의 ‘파라미터 변경 보고서’를 생성해야 하는 경우, <코드체>rmarkdown::render()를 <코드체>params 리스트와 함께 호출할 수 있다.

rmarkdown::render("fuel-economy.Rmd", params = list(my_class = "suv"))

이것은 <코드체>purrr:pwalk()와 함께 사용하면 강력해 진다. 다음 예제는 <코드체>mpg에 있는 <코드체>class 각 값에 대해 보고서를 생성한다. 먼저 각 클래스마다 보고서의 <코드체>filename과 <코드체>params를 포함한 행이 하나씩 있는 데이터프레임 하나를 만든다.

reports <- tibble(
  class = unique(mpg$class),
  filename = stringr::str_c("fuel-economy-", class, ".html"),
  params = purrr::map(class, ~ list(my_class = .))
)
reports
#> # A tibble: 7 x 3
#>   class   filename                  params          
#>   <chr>   <chr>                     <list>          
#> 1 compact fuel-economy-compact.html <named list [1]>
#> 2 midsize fuel-economy-midsize.html <named list [1]>
#> 3 suv     fuel-economy-suv.html     <named list [1]>
#> 4 2seater fuel-economy-2seater.html <named list [1]>
#> 5 minivan fuel-economy-minivan.html <named list [1]>
#> 6 pickup  fuel-economy-pickup.html  <named list [1]>
#> # ... with 1 more row
…
