…
```r
rmarkdown::render("fuel-economy.Rmd", params = list(my_class = "suv"))
```

이것은 <코드체>purrr:pwalk()</코드체>와 함께 사용하면 강력해 진다. 다음 예제는 <코드체>mpg</코드체>에 있는 <코드체>class</코드체> 각 값에 대해 보고서를 생성한다. 먼저 각 클래스마다 보고서의 <코드체>filename</코드체>과 <코드체>params</코드체>를 포함한 행이 하나씩 있는 데이터프레임 하나를 만든다. 


```r
reports <- tibble(
  class = unique(mpg$class),
  filename = stringr::str_c("fuel-economy-", class, ".html"),
  params = purrr::map(class, ~ list(my_class = .))
)
reports
#> # A tibble: 7 x 3
#>   class   filename                  params          
#>   <chr>   <chr>                     <list>          
#> 1 compact fuel-economy-compact.html <named list [1]>
#> 2 midsize fuel-economy-midsize.html <named list [1]>
#> 3 suv     fuel-economy-suv.html     <named list [1]>
#> 4 2seater fuel-economy-2seater.html <named list [1]>
#> 5 minivan fuel-economy-minivan.html <named list [1]>
#> 6 pickup  fuel-economy-pickup.html  <named list [1]>
#> # ... with 1 more row
```
…
