10 티블 | R 을 활용한 데이터과학
…
tibble 에 대해 이 장의 내용보다 더 자세히 배우고 싶으면 vignette("tibble")를 이용하면 된다.

10.1.1 준비하기

이 장에서는 tidyverse 패키지의 핵심 중 하나인 tibble 패키지를 살펴본다.

library(tidyverse)

10.2 tibble 생성하기

이 책에서 사용하는 대부분의 함수는 tidyverse 의 통합 특성 중 하나인 tibble 을 생성한다. 대부분의 다른 R 패키지는 일반적인 데이터프레임을 사용하므로, 데이터프레임을 tibble 로 강제 변환해야 할 경우가 있다. as_tibble() 를 사용하면 된다.

as_tibble(iris)
#> # A tibble: 150 x 5
#>   Sepal.Length Sepal.Width Petal.Length Petal.Width Species
#>          <dbl>       <dbl>        <dbl>       <dbl> <fct>  
#> 1          5.1         3.5          1.4         0.2 setosa 
#> 2          4.9         3            1.4         0.2 setosa 
#> 3          4.7         3.2          1.3         0.2 setosa 
#> 4          4.6         3.1          1.5         0.2 setosa 
#> 5          5           3.6          1.4         0.2 setosa 
#> 6          5.4         3.9          1.7         0.4 setosa 
#> # ... with 144 more rows
…
tibble 과 전통적인 data.frame 의 용법에는 두 가지 주요 차이점이 있는데, 화면출력과 서브셋하기다.

10.3.1 화면출력

tibble 은 정교하게 화면 출력이 되는데, 처음 10 개의 행과, 화면에 들어가는 열 모두를 보여준다. 이를 이용하면 대용량 데이터 작업을 훨씬 쉽게 할 수 있다. 또한 str() 에서 가져온 기능으로 각 열의 유형을 열이름과 더불어 표시한다.

tibble(
  a = lubridate::now() + runif(1e3) * 86400,
  b = lubridate::today() + runif(1e3) * 30,
  c = 1:1e3,
  d = runif(1e3),
  e = sample(letters, 1e3, replace = TRUE)
)
#> # A tibble: 1,000 x 5
#>   a                   b              c     d e    
#>   <dttm>              <date>     <int> <dbl> <chr>
#> 1 2021-08-05 19:29:56 2021-08-12     1 0.368 n    
#> 2 2021-08-06 13:35:06 2021-08-17     2 0.612 l    
#> 3 2021-08-06 07:58:45 2021-08-27     3 0.415 p    
#> 4 2021-08-05 21:20:02 2021-08-26     4 0.212 m    
#> 5 2021-08-05 17:44:19 2021-08-23     5 0.733 i    
#> 6 2021-08-06 04:45:16 2021-08-19     6 0.460 n    
#> # ... with 994 more rows
…
