10 타이디 데이터 | R for Data Science
…
하나의 기본 데이터를 표현하는 방식은 다양하다. 다음 예는 같은 데이터를 다른 네 가지 방식으로 구성하여 보여준다. 각 데이터셋은 country(국가), year(연도), population(인구) 및 cases(사례), 네 개의 변수 값을 동일하게 보여주지만 다른 방식으로 구성한다.

table1
#> # A tibble: 6 x 4
#>   country      year  cases population
#>   <chr>       <int>  <int>      <int>
#> 1 Afghanistan  1999    745   19987071
#> 2 Afghanistan  2000   2666   20595360
#> 3 Brazil       1999  37737  172006362
#> 4 Brazil       2000  80488  174504898
#> 5 China        1999 212258 1272915272
#> 6 China        2000 213766 1280428583
table2
#> # A tibble: 12 x 4
#>   country      year type           count
#>   <chr>       <int> <chr>          <int>
#> 1 Afghanistan  1999 cases            745
#> 2 Afghanistan  1999 population  19987071
#> 3 Afghanistan  2000 cases           2666
#> 4 Afghanistan  2000 population  20595360
#> 5 Brazil       1999 cases          37737
#> 6 Brazil       1999 population 172006362
#> # ... with 6 more rows
…
10.3.2 Spread

펼치기는 수집하기의 반대이다. 관측값이 여러 행에 흩어져 있을 때 사용한다. 예를 들어 table2 를 보자. 하나의 관측값은 한 해, 한 국가에 대한 것이지만, 각 관측값이 두 행에 흩어져 있다.

table2
#> # A tibble: 12 x 4
#>   country      year type           count
#>   <chr>       <int> <chr>          <int>
#> 1 Afghanistan  1999 cases            745
#> 2 Afghanistan  1999 population  19987071
#> 3 Afghanistan  2000 cases           2666
#> 4 Afghanistan  2000 population  20595360
#> 5 Brazil       1999 cases          37737
#> 6 Brazil       1999 population 172006362
#> # ... with 6 more rows
…
타이디 데이터에서 결측값을 명시적으로 표현하는 또 다른 중요한 도구로 complete() 가 있다.

stocks %>% 
  complete(year, qtr)
#> # A tibble: 8 x 3
#>    year   qtr return
#>   <dbl> <dbl>  <dbl>
#> 1  2015     1   1.88
#> 2  2015     2   0.59
#> 3  2015     3   0.35
#> 4  2015     4  NA   
#> 5  2016     1  NA   
#> 6  2016     2   0.92
#> # ... with 2 more rows
…
10.5.1 연습문제

spread() 와 complete() 의 fill 인수를 비교∙대조하라.

fill() 의 direction 인수는 무엇을 하는가?

10.6 사례 연구

데이터를 타이디하게 만들기 위해 배운 것을 모두 정리하면서 이 장을 끝내자. tidyr::who 데이터셋에는 결핵(TB) 사례가 연도, 국가, 나이, 성별 및 진단 방법별로 세분화되어 있다. 이 데이터는 2014년 세계보건기구 전세계 결핵 보고서에 실렸으며, http://www.who.int/tb/country/data/download/en/에서 얻을 수 있다.

이 데이터셋에는 역학 정보가 풍부하게 있지만, 제공된 데이터 형식으로 작업하는 것은 쉽지 않다.

who
#> # A tibble: 7,240 x 60
#>   country iso2  iso3   year new_sp_m014 new_sp_m1524 new_sp_m2534
#>   <chr>   <chr> <chr> <int>       <int>        <int>        <int>
#> 1 Afghan… AF    AFG    1980          NA           NA           NA
#> 2 Afghan… AF    AFG    1981          NA           NA           NA
#> 3 Afghan… AF    AFG    1982          NA           NA           NA
#> 4 Afghan… AF    AFG    1983          NA           NA           NA
#> 5 Afghan… AF    AFG    1984          NA           NA           NA
#> 6 Afghan… AF    AFG    1985          NA           NA           NA
#> # ... with 7,234 more rows, and 53 more variables: new_sp_m3544 <int>,
#> #   new_sp_m4554 <int>, new_sp_m5564 <int>, new_sp_m65 <int>,
#> #   new_sp_f014 <int>, new_sp_f1524 <int>, new_sp_f2534 <int>,
#> #   new_sp_f3544 <int>, new_sp_f4554 <int>, new_sp_f5564 <int>,
#> #   new_sp_f65 <int>, new_sn_m014 <int>, new_sn_m1524 <int>,
#> #   new_sn_m2534 <int>, new_sn_m3544 <int>, new_sn_m4554 <int>,
#> #   new_sn_m5564 <int>, new_sn_m65 <int>, new_sn_f014 <int>,
#> #   new_sn_f1524 <int>, new_sn_f2534 <int>, new_sn_f3544 <int>,
#> #   new_sn_f4554 <int>, new_sn_f5564 <int>, new_sn_f65 <int>,
…
새로운 key 열의 값을 세어서 값의 구조에 대한 힌트를 얻을 수 있다.

who1 %>% 
  count(key)
#> # A tibble: 56 x 2
#>   key              n
#>   <chr>        <int>
#> 1 new_ep_f014   1032
#> 2 new_ep_f1524  1021
#> 3 new_ep_f2534  1021
#> 4 new_ep_f3544  1021
#> 5 new_ep_f4554  1017
#> 6 new_ep_f5564  1017
#> # ... with 50 more rows
…
