…
```r
table1
#> # A tibble: 6 x 4
#>   country      year  cases population
#>   <chr>       <int>  <int>      <int>
#> 1 Afghanistan  1999    745   19987071
#> 2 Afghanistan  2000   2666   20595360
#> 3 Brazil       1999  37737  172006362
#> 4 Brazil       2000  80488  174504898
#> 5 China        1999 212258 1272915272
#> 6 China        2000 213766 1280428583
table2
#> # A tibble: 12 x 4
#>   country      year type           count
#>   <chr>       <int> <chr>          <int>
#> 1 Afghanistan  1999 cases            745
#> 2 Afghanistan  1999 population  19987071
#> 3 Afghanistan  2000 cases           2666
#> 4 Afghanistan  2000 population  20595360
#> 5 Brazil       1999 cases          37737
#> 6 Brazil       1999 population 172006362
#> # … with 6 more rows
…
### Wider

`pivot_wider()` 은  `pivot_longer()` 의 반대이다. 관측값이 여러 행에 흩어져 있을 때 사용한다. 예를 들어 `table2` 를 보자. 하나의 관측값은 한 해, 한 국가에 대한 것이지만, 각 관측값이 두 행에 흩어져 있다.


```r
table2
#> # A tibble: 12 x 4
#>   country      year type           count
#>   <chr>       <int> <chr>          <int>
#> 1 Afghanistan  1999 cases            745
#> 2 Afghanistan  1999 population  19987071
#> 3 Afghanistan  2000 cases           2666
#> 4 Afghanistan  2000 population  20595360
#> 5 Brazil       1999 cases          37737
#> 6 Brazil       1999 population 172006362
#> # … with 6 more rows
```
…
타이디 데이터에서 결측값을 명시적으로 표현하는 또 다른 중요한 도구로 `complete()` 가 있다.


```r
stocks %>% 
  complete(year, qtr)
#> # A tibble: 8 x 3
#>    year   qtr return
#>   <dbl> <dbl>  <dbl>
#> 1  2015     1   1.88
#> 2  2015     2   0.59
#> 3  2015     3   0.35
#> 4  2015     4  NA   
#> 5  2016     1  NA   
#> 6  2016     2   0.92
#> # … with 2 more rows
```
…
1.  `pivot_wider()` 와 `complete()` 의 `fill` 인수를 비교∙대조하라.

1.  `fill()` 의 `direction` 인수는 무엇을 하는가? 

## 사례 연구

데이터를 타이디하게 만들기 위해 배운 것을 모두 정리하면서 이 장을 끝내자. `tidyr::who`  데이터셋에는 결핵(TB) 사례가 연도, 국가, 나이, 성별 및 진단 방법별로 세분화되어 있다. 이 데이터는 2014년 세계보건기구 전세계 결핵 보고서에 실렸으며, <http://www.who.int/tb/country/data/download/en/>에서 얻을 수 있다. 

이 데이터셋에는 역학 정보가 풍부하게 있지만, 제공된 데이터 형식으로 작업하는 것은 쉽지 않다.


```r
who
#> # A tibble: 7,240 x 60
#>   country iso2  iso3   year new_sp_m014 new_sp_m1524 new_sp_m2534 new_sp_m3544
#>   <chr>   <chr> <chr> <int>       <int>        <int>        <int>        <int>
#> 1 Afghan… AF    AFG    1980          NA           NA           NA           NA
#> 2 Afghan… AF    AFG    1981          NA           NA           NA           NA
#> 3 Afghan… AF    AFG    1982          NA           NA           NA           NA
#> 4 Afghan… AF    AFG    1983          NA           NA           NA           NA
#> 5 Afghan… AF    AFG    1984          NA           NA           NA           NA
#> 6 Afghan… AF    AFG    1985          NA           NA           NA           NA
#> # … with 7,234 more rows, and 52 more variables: new_sp_m4554 <int>,
#> #   new_sp_m5564 <int>, new_sp_m65 <int>, new_sp_f014 <int>,
#> #   new_sp_f1524 <int>, new_sp_f2534 <int>, new_sp_f3544 <int>,
#> #   new_sp_f4554 <int>, new_sp_f5564 <int>, new_sp_f65 <int>,
#> #   new_sn_m014 <int>, new_sn_m1524 <int>, new_sn_m2534 <int>,
#> #   new_sn_m3544 <int>, new_sn_m4554 <int>, new_sn_m5564 <int>,
#> #   new_sn_m65 <int>, new_sn_f014 <int>, new_sn_f1524 <int>,
#> #   new_sn_f2534 <int>, new_sn_f3544 <int>, new_sn_f4554 <int>,
#> #   new_sn_f5564 <int>, new_sn_f65 <int>, new_ep_m014 <int>,
…
* 다른 모든 열은 아직 무엇인지 알 수 없지만, 변수 이름 (예: `new_sp_m014` , `new_ep_m014` , `new_ep_f014` )의 구조를 보면 이들은 변수가 아닌 값일 가능성이 있다.

따라서 `new_sp_m014` 에서 `newrel_f65` 까지의 모든 열을 모을 필요가 있다. 그 값이 무엇을 나타내는지 아직 알지 못하기 때문에 일반 이름인 ’`key` ’라는 이름을 붙일 것이다. 셀이 사례수를 나타내는 것을 알고 있으므로 변수 `cases` 를 사용한다. 현재 표현에는 많은 결측값이 있으므로 `na.rm` 을 사용하여 있는 값에만 집중할 것이다.


```r
who1 <- who %>% 
  pivot_longer(
    cols = new_sp_m014:newrel_f65, 
    names_to = "key", 
    values_to = "cases", 
    values_drop_na = TRUE
  )
who1
#> # A tibble: 76,046 x 6
#>   country     iso2  iso3   year key          cases
#>   <chr>       <chr> <chr> <int> <chr>        <int>
#> 1 Afghanistan AF    AFG    1997 new_sp_m014      0
#> 2 Afghanistan AF    AFG    1997 new_sp_m1524    10
#> 3 Afghanistan AF    AFG    1997 new_sp_m2534     6
#> 4 Afghanistan AF    AFG    1997 new_sp_m3544     3
#> 5 Afghanistan AF    AFG    1997 new_sp_m4554     5
#> 6 Afghanistan AF    AFG    1997 new_sp_m5564     2
#> # … with 76,040 more rows
```

새로운 `key` 열의 값을 세어서 값의 구조에 대한 힌트를 얻을 수 있다.


```r
who1 %>% 
  count(key)
#> # A tibble: 56 x 2
#>   key              n
#>   <chr>        <int>
#> 1 new_ep_f014   1032
#> 2 new_ep_f1524  1021
#> 3 new_ep_f2534  1021
#> 4 new_ep_f3544  1021
#> 5 new_ep_f4554  1017
#> 6 new_ep_f5564  1017
#> # … with 50 more rows
```
…
열 이름의 형식을 약간 수정해야 한다. 열 이름이 `new_rel` 이 아니라 `newrel` 이기 때문에 불행하게도 이름에 일관성이 없다. (여기에서 이를 발견해내기는 쉽지 않지만, 수정하지 않으면 이후에 에러가 발생한다.) [문자열]에서 `str_replace()` 에 대해 배우겠지만, 기본적인 아이디어는 간단하다. ’newrel‘ 문자를 ’new_rel‘ 문자로 바꾼다. 이렇게 하면 모든 변수 이름에서 일관성이 유지된다.


```r
who2 <- who1 %>% 
  mutate(key = stringr::str_replace(key, "newrel", "new_rel"))
who2
#> # A tibble: 76,046 x 6
#>   country     iso2  iso3   year key          cases
#>   <chr>       <chr> <chr> <int> <chr>        <int>
#> 1 Afghanistan AF    AFG    1997 new_sp_m014      0
#> 2 Afghanistan AF    AFG    1997 new_sp_m1524    10
#> 3 Afghanistan AF    AFG    1997 new_sp_m2534     6
#> 4 Afghanistan AF    AFG    1997 new_sp_m3544     3
#> 5 Afghanistan AF    AFG    1997 new_sp_m4554     5
#> 6 Afghanistan AF    AFG    1997 new_sp_m5564     2
#> # … with 76,040 more rows
```

각 코드의 값을 `separate()`  2회 실행하여 분리할 수 있다. 첫 번째 실행은 각 언더스코어마다 코드를 쪼갠다.


```r
who3 <- who2 %>% 
  separate(key, c("new", "type", "sexage"), sep = "_")
who3
#> # A tibble: 76,046 x 8
#>   country     iso2  iso3   year new   type  sexage cases
#>   <chr>       <chr> <chr> <int> <chr> <chr> <chr>  <int>
#> 1 Afghanistan AF    AFG    1997 new   sp    m014       0
#> 2 Afghanistan AF    AFG    1997 new   sp    m1524     10
#> 3 Afghanistan AF    AFG    1997 new   sp    m2534      6
#> 4 Afghanistan AF    AFG    1997 new   sp    m3544      3
#> 5 Afghanistan AF    AFG    1997 new   sp    m4554      5
#> 6 Afghanistan AF    AFG    1997 new   sp    m5564      2
#> # … with 76,040 more rows
```
…
다음으로 `sexage` 를 `sex` 와 `age` 로 분리할 것이다.


```r
who5 <- who4 %>% 
  separate(sexage, c("sex", "age"), sep = 1)
who5
#> # A tibble: 76,046 x 6
#>   country      year type  sex   age   cases
#>   <chr>       <int> <chr> <chr> <chr> <int>
#> 1 Afghanistan  1997 sp    m     014       0
#> 2 Afghanistan  1997 sp    m     1524     10
#> 3 Afghanistan  1997 sp    m     2534      6
#> 4 Afghanistan  1997 sp    m     3544      3
#> 5 Afghanistan  1997 sp    m     4554      5
#> 6 Afghanistan  1997 sp    m     5564      2
#> # … with 76,040 more rows
```
…
