…
1. 결과는 새로운 데이터프레임이다.

이 속성들을 함께 이용하면 여러 단순한 단계를 쉽게 연결하여 복잡한 결과를
얻을 수 있다. 이 동사들이 어떻게 작동하는지 좀 더 살펴보자.

## `filter()` 로 필터링하기

`filter()` 를 이용하면 값을 기준으로 데이터를 서브셋할 수 있다. 
첫 번째 인수는 데이터프레임 이름이다. 두 번째 이후의 인수들은 데이터프레임을 필터링하는 표현식들이다. 예를 들어 1월 1일 항공편 모두를 다음과 같이
선택할 수 있다.


```r
filter(flights, month == 1, day == 1)
#> # A tibble: 842 x 19
#>    year month   day dep_time sched_dep_time dep_delay arr_time
#>   <int> <int> <int>    <int>          <int>     <dbl>    <int>
#> 1  2013     1     1      517            515         2      830
#> 2  2013     1     1      533            529         4      850
#> 3  2013     1     1      542            540         2      923
#> 4  2013     1     1      544            545        -1     1004
#> 5  2013     1     1      554            600        -6      812
#> 6  2013     1     1      554            558        -4      740
#> # ... with 836 more rows, and 12 more variables: sched_arr_time <int>,
#> #   arr_delay <dbl>, carrier <chr>, flight <int>, tailnum <chr>,
#> #   origin <chr>, dest <chr>, air_time <dbl>, distance <dbl>, hour <dbl>,
#> #   minute <dbl>, time_hour <dttm>
```

해당 코드 라인을 실행하면 dplyr은 필터링 연산을 실행하고 새로운 데이터프레임을 반환한다. 
dplyr 함수들은 입력을 절대 수정하지 않기 때문에, 결과를 저장하려면 할당 연산자 `<-` 를 사용해야 한다.


```r
jan1 <- filter(flights, month == 1, day == 1)
```

R 은 결과를 출력하거나 변수에 저장한다. 둘 다 수행되게 하려면 할당문을 괄호로 묶으면 된다.


```r
(dec25 <- filter(flights, month == 12, day == 25))
#> # A tibble: 719 x 19
#>    year month   day dep_time sched_dep_time dep_delay arr_time
#>   <int> <int> <int>    <int>          <int>     <dbl>    <int>
#> 1  2013    12    25      456            500        -4      649
#> 2  2013    12    25      524            515         9      805
#> 3  2013    12    25      542            540         2      832
#> 4  2013    12    25      546            550        -4     1022
#> 5  2013    12    25      556            600        -4      730
#> 6  2013    12    25      557            600        -3      743
#> # ... with 713 more rows, and 12 more variables: sched_arr_time <int>,
#> #   arr_delay <dbl>, carrier <chr>, flight <int>, tailnum <chr>,
#> #   origin <chr>, dest <chr>, air_time <dbl>, distance <dbl>, hour <dbl>,
#> #   minute <dbl>, time_hour <dttm>
```
…
(`na.rm = TRUE` 의 의미는 곧바로 살펴볼 것이다.)

`summarize()` 는 `group_by()` 와 함께 사용하지 않으면 별로 유용하지 않다. `group_by()` 는 분석의 단위를 전체 데이터셋에서 개별 그룹으로 변경시킨다. 이후 **dplyr**  동사를 그룹화된 데이터프레임에 사용하면 이 동사가 ’그룹마다(by group)’ 적용된다. 예를 들어 날짜로 그룹화된 데이터프레임에 정확히 같은 코드를 적용하면 날짜별 평균 지연 시간이 나온다.



```r
by_day <- group_by(flights, year, month, day)
summarize(by_day, delay = mean(dep_delay, na.rm = TRUE))
#> # A tibble: 365 x 4
#> # Groups:   year, month [?]
#>    year month   day delay
#>   <int> <int> <int> <dbl>
#> 1  2013     1     1 11.5 
#> 2  2013     1     2 13.9 
#> 3  2013     1     3 11.0 
#> 4  2013     1     4  8.95
#> 5  2013     1     5  5.73
#> 6  2013     1     6  7.15
#> # ... with 359 more rows
```
…
기저에서는 `x %>% f(y)`  는 `f(x, y)` 로 바뀌고, `x %>% f(y) %>% g(z) `  는 `g(f(x, y), z) ` 로 바뀐다. 파이프를 사용하여 다중 작업을 좌-에서-우, 위-에서-아래로 읽을 수 있게 다시 쓸 수 있다. 파이프를 사용하면 코드 가독성이 현격하게 좋아지므로 지금부터는 파이프를 자주 사용할 것이다. 파이프의 세부 사항에 대해서는 나중에 다시 살펴볼 것이다.

파이프로 작업하는 것은 **tidyverse** 에 속하기 위한 핵심 기준 중 하나이다. 유일한 예외는 **ggplot2** 인데 이는 파이프가 발견되기 전에 작성되었다. **ggplot2** 의 다음 버전이며 파이프를 사용하는 **ggvis** 도 안타깝게도 무대에 나오기에는 아직 준비가 되지 않았다.

### 결측값

위에서 우리가 사용한 `na.rm` 인수에 대해 궁금해 했을 것이다. 이를 설정하지 않았다면 어떻게 되었을까?


```r
flights %>% 
  group_by(year, month, day) %>% 
  summarize(mean = mean(dep_delay))
#> # A tibble: 365 x 4
#> # Groups:   year, month [?]
#>    year month   day  mean
#>   <int> <int> <int> <dbl>
#> 1  2013     1     1    NA
#> 2  2013     1     2    NA
#> 3  2013     1     3    NA
#> 4  2013     1     4    NA
#> 5  2013     1     5    NA
#> 6  2013     1     6    NA
#> # ... with 359 more rows
```

결측값이 많이 생겼다. 집계 함수는 결측값에 관한 일반적인 법칙을 따르기 때문 (즉, 입력에 결측값이 있으면 출력도 결측값이 된다) 이다. 다행스럽게도, 모든 집계 함수에는 `na.rm`  인수가 있어서 계산 전에 결측값들을 제거할 수 있다.


```r
flights %>% 
  group_by(year, month, day) %>% 
  summarize(mean = mean(dep_delay, na.rm = TRUE))
#> # A tibble: 365 x 4
#> # Groups:   year, month [?]
#>    year month   day  mean
#>   <int> <int> <int> <dbl>
#> 1  2013     1     1 11.5 
#> 2  2013     1     2 13.9 
#> 3  2013     1     3 11.0 
#> 4  2013     1     4  8.95
#> 5  2013     1     5  5.73
#> 6  2013     1     6  7.15
#> # ... with 359 more rows
```

이 경우에서 결측값은 취소된 항공편을 나타내므로, 취소된 항공편을 제거해서 문제를 해결할 수 있다. 이 데이터셋을 저장하여 다음 몇 가지 예제에서 재사용할 것이다. 


```r
not_cancelled <- flights %>% 
  filter(!is.na(dep_delay), !is.na(arr_delay))

not_cancelled %>% 
  group_by(year, month, day) %>% 
  summarize(mean = mean(dep_delay))
#> # A tibble: 365 x 4
#> # Groups:   year, month [?]
#>    year month   day  mean
#>   <int> <int> <int> <dbl>
#> 1  2013     1     1 11.4 
#> 2  2013     1     2 13.7 
#> 3  2013     1     3 10.9 
#> 4  2013     1     4  8.97
#> 5  2013     1     5  5.73
#> 6  2013     1     6  7.15
#> # ... with 359 more rows
```
…
mean, count, sum을 사용하면 많은 이점을 얻을 수 있지만, R에는 다른 유용한 요약 함수들이 많다.

*   **위치 측정값**: 앞서 `mean(x)` 를 사용했지만, `median(x)` 도 유용하다. 평균(mean)은 총합 나누기 길이이고 중앙값(median)은 `x` 의 50%가 위에 위치하고, 50%는 아래에 위치하게 되는 값이다.

    집계와 논리형 서브셋을 조합하는 것이 유용할 때가 있다. 이러한 종류의 서브셋하기를 아직 우리가 다루지는 않았지만, [subsetting] 에서 더 배울 것이다.

    
    ```r
    not_cancelled %>% 
      group_by(year, month, day) %>% 
      summarize(
        avg_delay1 = mean(arr_delay),
        avg_delay2 = mean(arr_delay[arr_delay > 0]) # the average positive delay
      )
    #> # A tibble: 365 x 5
    #> # Groups:   year, month [?]
    #>    year month   day avg_delay1 avg_delay2
    #>   <int> <int> <int>      <dbl>      <dbl>
    #> 1  2013     1     1      12.7        32.5
    #> 2  2013     1     2      12.7        32.0
    #> 3  2013     1     3       5.73       27.7
    #> 4  2013     1     4      -1.93       28.3
    #> 5  2013     1     5      -1.53       22.6
    #> 6  2013     1     6       4.24       24.4
    #> # ... with 359 more rows
    ```

*   **산포 측정값**: `sd(x), IQR(x), mad(x)` . 평균제곱편차, 다른 말로는 표준 편차(standard deviation, sd)는 산포의 표준 측정값이다. 사분위범위(interquantile range), `IQR()` 과 중위절대편차(median absolute deviation), `mad(x)` 는 이상값이 있을 때 더 유용할 수 있는 로버스트 대체값들이다.

    
    ```r
    # Why is distance to some destinations more variable than to others?
    not_cancelled %>% 
      group_by(dest) %>% 
      summarize(distance_sd = sd(distance)) %>% 
      arrange(desc(distance_sd))
    #> # A tibble: 104 x 2
    #>   dest  distance_sd
    #>   <chr>       <dbl>
    #> 1 EGE         10.5 
    #> 2 SAN         10.4 
    #> 3 SFO         10.2 
    #> 4 HNL         10.0 
    #> 5 SEA          9.98
    #> 6 LAS          9.91
    #> # ... with 98 more rows
    ```
  
*   **순위 측정값**: `min(x), quntile(x, 0.25), max(x)` . 분위수는 중앙값의 일반화이다. 예를 들어 `quantile(x, 0.25)` 는 25%`보다는 크고, 나머지 75%보다는 작은 값을 찾는다.

    
    ```r
    # When do the first and last flights leave each day?
    not_cancelled %>% 
      group_by(year, month, day) %>% 
      summarize(
        first = min(dep_time),
        last = max(dep_time)
      )
    #> # A tibble: 365 x 5
    #> # Groups:   year, month [?]
    #>    year month   day first  last
    #>   <int> <int> <int> <dbl> <dbl>
    #> 1  2013     1     1   517  2356
    #> 2  2013     1     2    42  2354
    #> 3  2013     1     3    32  2349
    #> 4  2013     1     4    25  2358
    #> 5  2013     1     5    14  2357
    #> 6  2013     1     6    16  2355
    #> # ... with 359 more rows
    ```
  
*   **자리(position) 측정값**: `first(x), nth(x, 2), last(x)` . `x[1], x[2], x[length(x)]` 와 유사하게 동작하지만 자리가 존재하지 않을 때(예를 들어 두 개의 요소만 있는 그룹에서 세 번째 요소를 접근하려고 할 때) 기본값을 설정할 수 있다. 예를 들어 각 날짜에 처음과 마지막 출발을 찾을 수 있다.

    
    ```r
    not_cancelled %>% 
      group_by(year, month, day) %>% 
      summarize(
        first_dep = first(dep_time), 
        last_dep = last(dep_time)
      )
    #> # A tibble: 365 x 5
    #> # Groups:   year, month [?]
    #>    year month   day first_dep last_dep
    #>   <int> <int> <int>     <int>    <int>
    #> 1  2013     1     1       517     2356
    #> 2  2013     1     2        42     2354
    #> 3  2013     1     3        32     2349
    #> 4  2013     1     4        25     2358
    #> 5  2013     1     5        14     2357
    #> 6  2013     1     6        16     2355
    #> # ... with 359 more rows
    ```
    
    이 함수들은 순위로 필터링하는 것을 보완한다. 필터링하면 모든 변수를 얻을 수 있는데, 각 관측값을 별도의 행으로 얻을 수 있다.
    
    
    ```r
    not_cancelled %>% 
      group_by(year, month, day) %>% 
      mutate(r = min_rank(desc(dep_time))) %>% 
      filter(r %in% range(r))
    #> # A tibble: 770 x 20
    #> # Groups:   year, month, day [365]
    #>    year month   day dep_time sched_dep_time dep_delay arr_time
    #>   <int> <int> <int>    <int>          <int>     <dbl>    <int>
    #> 1  2013     1     1      517            515         2      830
    #> 2  2013     1     1     2356           2359        -3      425
    #> 3  2013     1     2       42           2359        43      518
    #> 4  2013     1     2     2354           2359        -5      413
    #> 5  2013     1     3       32           2359        33      504
    #> 6  2013     1     3     2349           2359       -10      434
    #> # ... with 764 more rows, and 13 more variables: sched_arr_time <int>,
    #> #   arr_delay <dbl>, carrier <chr>, flight <int>, tailnum <chr>,
    #> #   origin <chr>, dest <chr>, air_time <dbl>, distance <dbl>, hour <dbl>,
    #> #   minute <dbl>, time_hour <dttm>, r <int>
    ```

*   **카운트**: 인수가 없고 현재 그룹의 크기를 반환하는 `n()` 을 이미 보았다. 결측이 아닌 값의 수를 카운트하려면 `sum(!is.na(x))` 를 사용하라. 유일값 개수를 카운트하려면 `n_distinct(x)` 를 사용하라.

    
    ```r
    # Which destinations have the most carriers?
    not_cancelled %>% 
      group_by(dest) %>% 
      summarize(carriers = n_distinct(carrier)) %>% 
      arrange(desc(carriers))
    #> # A tibble: 104 x 2
    #>   dest  carriers
    #>   <chr>    <int>
    #> 1 ATL          7
    #> 2 BOS          7
    #> 3 CLT          7
    #> 4 ORD          7
    #> 5 TPA          7
    #> 6 AUS          6
    #> # ... with 98 more rows
    ```
    
    카운트는 유용하기 때문에 **dplyr** 에는 단순히 카운트만 원할 경우 사용할 수 있는 단순한 도우미함수가 있다.
    
    
    ```r
    not_cancelled %>% 
      count(dest)
    #> # A tibble: 104 x 2
    #>   dest      n
    #>   <chr> <int>
    #> 1 ABQ     254
    #> 2 ACK     264
    #> 3 ALB     418
    #> 4 ANC       8
    #> 5 ATL   16837
    #> 6 AUS    2411
    #> # ... with 98 more rows
    ```
    
    가중치 변수를 선택적으로 지정할 수 있다. 예를 들어 이를 사용하여 항공기가 비행한 마일 수를 ’카운트‘(합)할 수 있다.
    
    
    ```r
    not_cancelled %>% 
      count(tailnum, wt = distance)
    #> # A tibble: 4,037 x 2
    #>   tailnum      n
    #>   <chr>    <dbl>
    #> 1 D942DN    3418
    #> 2 N0EGMQ  239143
    #> 3 N10156  109664
    #> 4 N102UW   25722
    #> 5 N103US   24619
    #> 6 N104UW   24616
    #> # ... with 4,031 more rows
    ```
  
*   **논리형 값의 카운트와 비율**: `sum(x > 10), mean(y == 0)` . 수치형 함수와 사용할 경우 `TRUE` 는 1로 `FALSE` 는 0으로 바뀐다. 이렇게 되면 `sum()` 과 `mean()` 가 매우 유용해진다. `sum(x)` 는 `TRUE` 의 개수를, `mean(x)` 는 비율을 제공한다.

    
    ```r
    # How many flights left before 5am? (these usually indicate delayed
    # flights from the previous day)
    not_cancelled %>% 
      group_by(year, month, day) %>% 
      summarize(n_early = sum(dep_time < 500))
    #> # A tibble: 365 x 4
    #> # Groups:   year, month [?]
    #>    year month   day n_early
    #>   <int> <int> <int>   <int>
    #> 1  2013     1     1       0
    #> 2  2013     1     2       3
    #> 3  2013     1     3       4
    #> 4  2013     1     4       3
    #> 5  2013     1     5       3
    #> 6  2013     1     6       2
    #> # ... with 359 more rows
    
    # What proportion of flights are delayed by more than an hour?
    not_cancelled %>% 
      group_by(year, month, day) %>% 
      summarize(hour_perc = mean(arr_delay > 60))
    #> # A tibble: 365 x 4
    #> # Groups:   year, month [?]
    #>    year month   day hour_perc
    #>   <int> <int> <int>     <dbl>
    #> 1  2013     1     1    0.0722
    #> 2  2013     1     2    0.0851
    #> 3  2013     1     3    0.0567
    #> 4  2013     1     4    0.0396
    #> 5  2013     1     5    0.0349
    #> 6  2013     1     6    0.0470
    #> # ... with 359 more rows
    ```

### 다중 변수로 그룹화

여러 변수로 그룹화하면 각 요약값은 그룹화의 한 수준씩 벗겨낸다. 이를 이용하면 데이터셋을 점진적으로 쉽게 요약할 수 있다.


```r
daily <- group_by(flights, year, month, day)
(per_day   <- summarize(daily, flights = n()))
#> # A tibble: 365 x 4
#> # Groups:   year, month [?]
#>    year month   day flights
#>   <int> <int> <int>   <int>
#> 1  2013     1     1     842
#> 2  2013     1     2     943
#> 3  2013     1     3     914
#> 4  2013     1     4     915
#> 5  2013     1     5     720
#> 6  2013     1     6     832
#> # ... with 359 more rows
(per_month <- summarize(per_day, flights = sum(flights)))
#> # A tibble: 12 x 3
#> # Groups:   year [?]
#>    year month flights
#>   <int> <int>   <int>
#> 1  2013     1   27004
#> 2  2013     2   24951
#> 3  2013     3   28834
#> 4  2013     4   28330
#> 5  2013     5   28796
#> 6  2013     6   28243
#> # ... with 6 more rows
…
1. `count()`  의 `sort`  인수의 역할은 무엇인가? 언제 사용하겠는가?

## 그룹화 뮤테이트(와 필터링)

그룹화는 `summarize()` 와 조합하여 사용하면 가장 유용하지만 `mutate()` 와 `filter()` 로 편리한 작업을 할 수도 있다.

*   각 그룹에서 최악의 멤버들을 찾아보자.

    
    ```r
    flights_sml %>% 
      group_by(year, month, day) %>%
      filter(rank(desc(arr_delay)) < 10)
    #> # A tibble: 3,306 x 7
    #> # Groups:   year, month, day [365]
    #>    year month   day dep_delay arr_delay distance air_time
    #>   <int> <int> <int>     <dbl>     <dbl>    <dbl>    <dbl>
    #> 1  2013     1     1       853       851      184       41
    #> 2  2013     1     1       290       338     1134      213
    #> 3  2013     1     1       260       263      266       46
    #> 4  2013     1     1       157       174      213       60
    #> 5  2013     1     1       216       222      708      121
    #> 6  2013     1     1       255       250      589      115
    #> # ... with 3,300 more rows
    ```
…
