3 데이터 시각화 | R for Data Science
…
패키지는 한 번만 인스톨하면 되지만, 새로운 세션을 시작할 때마다 다시 로드해야 한다.

어떤 함수나 데이터셋이 어느 패키지에서 왔는지 명시할 필요가 있는 경우에는 특수 형식인 package::function()를 사용할 것이다. 예를 들어 ggplot2::ggplot()는 ggplot2 패키지의 ggplot() 함수를 사용한다는 것을 명시한다.

3.2 첫 단계

다음의 질문에 답하기 위해 그래프를 이용해 보자. 엔진이 큰 차가 작은 차보다 연료를 더 많이 사용하는가? 이미 답은 알고 있겠지만, 답을 정교하게 만들어보자. 엔진 크기와 연비의 관계는 어떠한가? 양의 관계? 음의 관계? 선형? 비선형?

3.2.1 mpg 데이터프레임

ggplot2 (다른 표현으로 ggplot2::mpg)에 있는 mpg 데이터프레임으로 여러분의 답을 테스트할 수 있다. 데이터프레임은 변수들(열)과 관측값들(행)의 직사각형 형태 집합체이다. mpg에는 미 환경보호당국이 수집한 38개의 차 모델들에 대한 관측값들이 포함되어 있다.

mpg
#> # A tibble: 234 x 11
#>   manufacturer model displ  year   cyl trans drv     cty   hwy fl    class
#>   <chr>        <chr> <dbl> <int> <int> <chr> <chr> <int> <int> <chr> <chr>
#> 1 audi         a4      1.8  1999     4 auto… f        18    29 p     comp…
#> 2 audi         a4      1.8  1999     4 manu… f        21    29 p     comp…
#> 3 audi         a4      2    2008     4 manu… f        20    31 p     comp…
#> 4 audi         a4      2    2008     4 auto… f        21    30 p     comp…
#> 5 audi         a4      2.8  1999     6 auto… f        16    26 p     comp…
#> 6 audi         a4      2.8  1999     6 manu… f        18    26 p     comp…
#> # ... with 228 more rows
…
